﻿


TROOP 001
 Name "Slime Girl"
 PAGE 000
  ChangeVariable(29,29,0,0,1)
  RunCommonEvent(6)
  0()



TROOP 002
 Name "Slime Girl*2"
 PAGE 000
  ChangeVariable(29,29,0,0,1)
  ChangeVariable(30,30,0,0,1)
  RunCommonEvent(6)
  0()



TROOP 003
 Name "Bunny Slime, Slime Girl*2"
 PAGE 000
  ChangeVariable(29,29,0,0,1)
  ChangeVariable(30,30,0,0,2)
  ChangeVariable(31,31,0,0,1)
  RunCommonEvent(6)
  0()



TROOP 004
 Name "Bunny Slime"
 PAGE 000
  ChangeVariable(29,29,0,0,2)
  RunCommonEvent(6)
  0()



TROOP 005
 Name "Bunny Slime, Slime Girl*2"
 PAGE 000
  ChangeVariable(29,29,0,0,2)
  ChangeVariable(30,30,0,0,1)
  ChangeVariable(31,31,0,0,1)
  RunCommonEvent(6)
  0()



TROOP 006
 Name "Bunny Slime*2"
 PAGE 000
  ChangeVariable(29,29,0,0,2)
  ChangeVariable(30,30,0,0,2)
  RunCommonEvent(6)
  0()



TROOP 007
 Name "Slug Girl"
 PAGE 000
  ChangeVariable(29,29,0,0,4)
  RunCommonEvent(6)
  0()



TROOP 008
 Name "Slug Girl*2"
 PAGE 000
  ChangeVariable(29,29,0,0,4)
  ChangeVariable(30,30,0,0,4)
  RunCommonEvent(6)
  0()



TROOP 009
 Name "Slug Girl*3"
 PAGE 000
  ChangeVariable(29,29,0,0,4)
  ChangeVariable(30,30,0,0,4)
  ChangeVariable(31,31,0,0,4)
  RunCommonEvent(6)
  0()



TROOP 010
 Name "Slime Girl, Slug Girl"
 PAGE 000
  ChangeVariable(29,29,0,0,1)
  ChangeVariable(30,30,0,0,4)
  RunCommonEvent(6)
  0()



TROOP 011
 Name "Slime Girl*3"
 PAGE 000
  ChangeVariable(29,29,0,0,1)
  ChangeVariable(30,30,0,0,1)
  ChangeVariable(31,31,0,0,1)
  RunCommonEvent(6)
  0()



TROOP 012
 Name "Slime Girl*4"
 PAGE 000
  ChangeVariable(29,29,0,0,1)
  ChangeVariable(30,30,0,0,1)
  ChangeVariable(31,31,0,0,1)
  ChangeVariable(32,32,0,0,1)
  RunCommonEvent(6)
  0()



TROOP 013
 Name "Imp"
 PAGE 000
  ChangeVariable(29,29,0,0,5)
  RunCommonEvent(6)
  0()



TROOP 014
 Name "Imp*2"
 PAGE 000
  ChangeVariable(29,29,0,0,5)
  ChangeVariable(30,30,0,0,5)
  RunCommonEvent(6)
  0()



TROOP 015
 Name "Imp*3"
 PAGE 000
  ChangeVariable(29,29,0,0,5)
  ChangeVariable(30,30,0,0,5)
  ChangeVariable(31,31,0,0,5)
  RunCommonEvent(6)
  0()



TROOP 016
 Name "Mandragora"
 PAGE 000
  ChangeVariable(29,29,0,0,6)
  RunCommonEvent(6)
  0()



TROOP 017
 Name "Mandragora*2"
 PAGE 000
  ChangeVariable(29,29,0,0,6)
  ChangeVariable(30,30,0,0,6)
  RunCommonEvent(6)
  0()



TROOP 018
 Name "Imp, Mandragora"
 PAGE 000
  ChangeVariable(29,29,0,0,5)
  ChangeVariable(30,30,0,0,6)
  RunCommonEvent(6)
  0()



TROOP 019
 Name "Dog Girl*2"
 PAGE 000
  ChangeVariable(29,29,0,0,7)
  ChangeVariable(30,30,0,0,7)
  RunCommonEvent(6)
  0()



TROOP 020
 Name "Dog Girl, Mandragora"
 PAGE 000
  ChangeVariable(29,29,0,0,7)
  ChangeVariable(30,30,0,0,6)
  RunCommonEvent(6)
  0()



TROOP 021
 Name "Earthworm Girl"
 PAGE 000
  ChangeVariable(29,29,0,0,8)
  RunCommonEvent(6)
  0()



TROOP 022
 Name "Earthworm Girl*2"
 PAGE 000
  ChangeVariable(29,29,0,0,8)
  ChangeVariable(30,30,0,0,8)
  RunCommonEvent(6)
  0()



TROOP 023
 Name "Dog Girl, Earthworm Girl"
 PAGE 000
  ChangeVariable(29,29,0,0,7)
  ChangeVariable(30,30,0,0,8)
  RunCommonEvent(6)
  0()



TROOP 024
 Name "Imp*2, Earthworm Girl"
 PAGE 000
  ChangeVariable(29,29,0,0,5)
  ChangeVariable(30,30,0,0,8)
  ChangeVariable(31,31,0,0,5)
  RunCommonEvent(6)
  0()



TROOP 025
 Name "Dog Girl*3"
 PAGE 000
  ChangeVariable(29,29,0,0,7)
  ChangeVariable(30,30,0,0,7)
  ChangeVariable(31,31,0,0,7)
  RunCommonEvent(6)
  0()



TROOP 026
 Name "Goblin Girl"
 PAGE 000
  ChangeVariable(29,29,0,0,9)
  RunCommonEvent(6)
  0()



TROOP 027
 Name "Tiny Lamia"
 PAGE 000
  ChangeVariable(29,29,0,0,10)
  RunCommonEvent(6)
  0()



TROOP 028
 Name "Vampire Girl"
 PAGE 000
  ChangeVariable(29,29,0,0,11)
  RunCommonEvent(6)
  0()



TROOP 029
 Name "Dragon Pup"
 PAGE 000
  ChangeVariable(29,29,0,0,12)
  RunCommonEvent(6)
  0()



TROOP 030
 Name "Rat Girl*2"
 PAGE 000
  ChangeVariable(29,29,0,0,13)
  ChangeVariable(30,30,0,0,13)
  RunCommonEvent(6)
  0()



TROOP 031
 Name "Rat Girl*2, Earthworm Girl"
 PAGE 000
  ChangeVariable(29,29,0,0,13)
  ChangeVariable(30,30,0,0,13)
  ChangeVariable(31,31,0,0,8)
  RunCommonEvent(6)
  0()



TROOP 032
 Name "Rat Girl*3"
 PAGE 000
  ChangeVariable(29,29,0,0,13)
  ChangeVariable(30,30,0,0,13)
  ChangeVariable(31,31,0,0,13)
  RunCommonEvent(6)
  0()



TROOP 033
 Name "Wolf Girl*2"
 PAGE 000
  ChangeVariable(29,29,0,0,14)
  ChangeVariable(30,30,0,0,14)
  RunCommonEvent(6)
  0()



TROOP 034
 Name "Wolf Girl*3"
 PAGE 000
  ChangeVariable(29,29,0,0,14)
  ChangeVariable(30,30,0,0,14)
  ChangeVariable(31,31,0,0,14)
  RunCommonEvent(6)
  0()



TROOP 035
 Name "Wolf Girl, Rat Girl"
 PAGE 000
  ChangeVariable(29,29,0,0,14)
  ChangeVariable(30,30,0,0,13)
  RunCommonEvent(6)
  0()



TROOP 036
 Name "Rat Girl, Wolf Girl*2"
 PAGE 000
  ChangeVariable(29,29,0,0,13)
  ChangeVariable(30,30,0,0,14)
  ChangeVariable(31,31,0,0,14)
  RunCommonEvent(6)
  0()



TROOP 037
 Name "Phoenix Girl"
 PAGE 000
  ChangeVariable(29,29,0,0,15)
  RunCommonEvent(6)
  0()



TROOP 038
 Name "Leech Girl"
 PAGE 000
  ChangeVariable(29,29,0,0,16)
  RunCommonEvent(6)
  0()



TROOP 039
 Name "Leech Girl*2"
 PAGE 000
  ChangeVariable(29,29,0,0,16)
  ChangeVariable(30,30,0,0,16)
  RunCommonEvent(6)
  0()



TROOP 040
 Name "Leech Girl, Wolf Girl*2"
 PAGE 000
  ChangeVariable(29,29,0,0,16)
  ChangeVariable(30,30,0,0,14)
  ChangeVariable(31,31,0,0,14)
  RunCommonEvent(6)
  0()



TROOP 041
 Name "Rabbit Girl*2"
 PAGE 000
  ChangeVariable(29,29,0,0,17)
  ChangeVariable(30,30,0,0,17)
  RunCommonEvent(6)
  0()



TROOP 042
 Name "Rabbit Girl*3"
 PAGE 000
  ChangeVariable(29,29,0,0,17)
  ChangeVariable(30,30,0,0,17)
  ChangeVariable(31,31,0,0,17)
  RunCommonEvent(6)
  0()



TROOP 043
 Name "Rabbit Girl*2, Leech Girl"
 PAGE 000
  ChangeVariable(29,29,0,0,17)
  ChangeVariable(30,30,0,0,17)
  ChangeVariable(31,31,0,0,16)
  RunCommonEvent(6)
  0()



TROOP 044
 Name "Wolf Girl*2, Rabbit Girl"
 PAGE 000
  ChangeVariable(29,29,0,0,14)
  ChangeVariable(30,30,0,0,14)
  ChangeVariable(31,31,0,0,17)
  RunCommonEvent(6)
  0()



TROOP 045
 Name "Sheep Girl*2"
 PAGE 000
  ChangeVariable(29,29,0,0,18)
  ChangeVariable(30,30,0,0,18)
  RunCommonEvent(6)
  0()



TROOP 046
 Name "Sheep Girl*3"
 PAGE 000
  ChangeVariable(29,29,0,0,18)
  ChangeVariable(30,30,0,0,18)
  ChangeVariable(31,31,0,0,18)
  RunCommonEvent(6)
  0()



TROOP 047
 Name "Rabbit Girl, Sheep Girl*2"
 PAGE 000
  ChangeVariable(29,29,0,0,17)
  ChangeVariable(30,30,0,0,18)
  ChangeVariable(31,31,0,0,18)
  RunCommonEvent(6)
  0()



TROOP 048
 Name "Sully*2"
 PAGE 000
  ChangeVariable(29,29,0,0,19)
  ChangeVariable(30,30,0,0,19)
  RunCommonEvent(6)
  0()



TROOP 049
 Name "Sully*3"
 PAGE 000
  ChangeVariable(29,29,0,0,19)
  ChangeVariable(30,30,0,0,19)
  ChangeVariable(31,31,0,0,19)
  RunCommonEvent(6)
  0()



TROOP 050
 Name "Jaide*2"
 PAGE 000
  ChangeVariable(29,29,0,0,20)
  ChangeVariable(30,30,0,0,20)
  RunCommonEvent(6)
  0()



TROOP 051
 Name "Jaide*3"
 PAGE 000
  ChangeVariable(29,29,0,0,20)
  ChangeVariable(30,30,0,0,20)
  ChangeVariable(31,31,0,0,20)
  RunCommonEvent(6)
  0()



TROOP 052
 Name "Sully, Jaide*2"
 PAGE 000
  ChangeVariable(29,29,0,0,19)
  ChangeVariable(30,30,0,0,20)
  ChangeVariable(31,31,0,0,20)
  RunCommonEvent(6)
  0()



TROOP 053
 Name "Shesta"
 PAGE 000
  ChangeVariable(29,29,0,0,21)
  RunCommonEvent(6)
  0()



TROOP 054
 Name "Shesta*2"
 PAGE 000
  ChangeVariable(29,29,0,0,21)
  ChangeVariable(30,30,0,0,21)
  RunCommonEvent(6)
  0()



TROOP 055
 Name "Shesta, Sully"
 PAGE 000
  ChangeVariable(29,29,0,0,21)
  ChangeVariable(30,30,0,0,19)
  RunCommonEvent(6)
  0()



TROOP 056
 Name "Shesta, Jaide"
 PAGE 000
  ChangeVariable(29,29,0,0,21)
  ChangeVariable(30,30,0,0,20)
  RunCommonEvent(6)
  0()



TROOP 057
 Name "Nuruko"
 PAGE 000
  ChangeVariable(29,29,0,0,22)
  RunCommonEvent(6)
  0()



TROOP 058
 Name "Archangel Ranael<BGM:boss_angel>"
 PAGE 000
  0()



TROOP 059
 Name "Principality Nagael<BGM:boss_angel>"
 PAGE 000
  0()



TROOP 060
 Name "Orc Girl*2"
 PAGE 000
  ChangeVariable(29,29,0,0,23)
  ChangeVariable(30,30,0,0,23)
  RunCommonEvent(6)
  0()



TROOP 061
 Name "Orc Girl*3"
 PAGE 000
  ChangeVariable(29,29,0,0,23)
  ChangeVariable(30,30,0,0,23)
  ChangeVariable(31,31,0,0,23)
  RunCommonEvent(6)
  0()



TROOP 062
 Name "Bee Girl"
 PAGE 000
  ChangeVariable(29,29,0,0,24)
  RunCommonEvent(6)
  0()



TROOP 063
 Name "Bee Girl*2"
 PAGE 000
  ChangeVariable(29,29,0,0,24)
  ChangeVariable(30,30,0,0,24)
  RunCommonEvent(6)
  0()



TROOP 064
 Name "Bee Girl, Orc Girl"
 PAGE 000
  ChangeVariable(29,29,0,0,24)
  ChangeVariable(30,30,0,0,23)
  RunCommonEvent(6)
  0()



TROOP 065
 Name "Sparrow Girl*2"
 PAGE 000
  ChangeVariable(29,29,0,0,25)
  ChangeVariable(30,30,0,0,25)
  RunCommonEvent(6)
  0()



TROOP 066
 Name "Sparrow Girl*3"
 PAGE 000
  ChangeVariable(29,29,0,0,25)
  ChangeVariable(30,30,0,0,25)
  ChangeVariable(31,31,0,0,25)
  RunCommonEvent(6)
  0()



TROOP 067
 Name "Orc Girl, Sparrow Girl*2"
 PAGE 000
  ChangeVariable(29,29,0,0,23)
  ChangeVariable(30,30,0,0,25)
  ChangeVariable(31,31,0,0,25)
  RunCommonEvent(6)
  0()



TROOP 068
 Name "Bee Girl, Sparrow Girl*2"
 PAGE 000
  ChangeVariable(29,29,0,0,24)
  ChangeVariable(30,30,0,0,25)
  ChangeVariable(31,31,0,0,25)
  RunCommonEvent(6)
  0()



TROOP 069
 Name "Harpy"
 PAGE 000
  ChangeVariable(29,29,0,0,26)
  RunCommonEvent(6)
  0()



TROOP 070
 Name "Harpy Sisters"
 PAGE 000
  ChangeVariable(29,29,0,0,27)
  RunCommonEvent(6)
  0()



TROOP 071
 Name "Queen Harpy"
 PAGE 000
  ChangeVariable(29,29,0,0,28)
  RunCommonEvent(6)
  0()



TROOP 072
 Name "Alipheese The 16th"
 PAGE 000
  0()



TROOP 073
 Name "Reaper"
 PAGE 000
  0()



TROOP 074
 Name "High Slug Girl"
 PAGE 000
  ChangeVariable(29,29,0,0,29)
  RunCommonEvent(6)
  0()



TROOP 075
 Name "High Slug Girl*2"
 PAGE 000
  ChangeVariable(29,29,0,0,29)
  ChangeVariable(30,30,0,0,29)
  RunCommonEvent(6)
  0()



TROOP 076
 Name "High Slug Girl, Slug Girl*2"
 PAGE 000
  ChangeVariable(29,29,0,0,29)
  ChangeVariable(30,30,0,0,4)
  ChangeVariable(31,31,0,0,4)
  RunCommonEvent(6)
  0()



TROOP 077
 Name "Slug Nun"
 PAGE 000
  ChangeVariable(29,29,0,0,30)
  RunCommonEvent(6)
  0()



TROOP 078
 Name "Slug Nun*2"
 PAGE 000
  ChangeVariable(29,29,0,0,30)
  ChangeVariable(30,30,0,0,30)
  RunCommonEvent(6)
  0()



TROOP 079
 Name "High Slug Girl, Slug Nun"
 PAGE 000
  ChangeVariable(29,29,0,0,29)
  ChangeVariable(30,30,0,0,30)
  RunCommonEvent(6)
  0()



TROOP 080
 Name "Slug Stars"
 PAGE 000
  ChangeVariable(29,29,0,0,31)
  RunCommonEvent(6)
  0()



TROOP 081
 Name "Jack O Lantern"
 PAGE 000
  ChangeVariable(29,29,0,0,32)
  RunCommonEvent(6)
  0()



TROOP 082
 Name "Jack O Lantern*2"
 PAGE 000
  ChangeVariable(29,29,0,0,32)
  ChangeVariable(30,30,0,0,32)
  RunCommonEvent(6)
  0()



TROOP 083
 Name "Jack O Lantern*3"
 PAGE 000
  ChangeVariable(29,29,0,0,32)
  ChangeVariable(30,30,0,0,32)
  ChangeVariable(31,31,0,0,32)
  RunCommonEvent(6)
  0()



TROOP 084
 Name "Roper Girl"
 PAGE 000
  ChangeVariable(29,29,0,0,33)
  RunCommonEvent(6)
  0()



TROOP 085
 Name "Roper Girl*2"
 PAGE 000
  ChangeVariable(29,29,0,0,33)
  ChangeVariable(30,30,0,0,33)
  RunCommonEvent(6)
  0()



TROOP 086
 Name "Jack O Lantern, Roper Girl"
 PAGE 000
  ChangeVariable(29,29,0,0,32)
  ChangeVariable(30,30,0,0,33)
  RunCommonEvent(6)
  0()



TROOP 087
 Name "Meda Girl*2"
 PAGE 000
  ChangeVariable(29,29,0,0,34)
  ChangeVariable(30,30,0,0,34)
  RunCommonEvent(6)
  0()



TROOP 088
 Name "Meda Girl*3"
 PAGE 000
  ChangeVariable(29,29,0,0,34)
  ChangeVariable(30,30,0,0,34)
  ChangeVariable(31,31,0,0,34)
  RunCommonEvent(6)
  0()



TROOP 089
 Name "Jack O Lantern, Meda Girl"
 PAGE 000
  ChangeVariable(29,29,0,0,32)
  ChangeVariable(30,30,0,0,34)
  RunCommonEvent(6)
  0()



TROOP 090
 Name "Candle Girl*2"
 PAGE 000
  ChangeVariable(29,29,0,0,35)
  ChangeVariable(30,30,0,0,35)
  RunCommonEvent(6)
  0()



TROOP 091
 Name "Candle Girl*3"
 PAGE 000
  ChangeVariable(29,29,0,0,35)
  ChangeVariable(30,30,0,0,35)
  ChangeVariable(31,31,0,0,35)
  RunCommonEvent(6)
  0()



TROOP 092
 Name "Candle Girl*4"
 PAGE 000
  ChangeVariable(29,29,0,0,35)
  ChangeVariable(30,30,0,0,35)
  ChangeVariable(31,31,0,0,35)
  ChangeVariable(32,32,0,0,35)
  RunCommonEvent(6)
  0()



TROOP 093
 Name "Orc Girl, Candle Girl*2"
 PAGE 000
  ChangeVariable(29,29,0,0,23)
  ChangeVariable(30,30,0,0,35)
  ChangeVariable(31,31,0,0,35)
  RunCommonEvent(6)
  0()



TROOP 094
 Name "Meda Girl, Candle Girl*2"
 PAGE 000
  ChangeVariable(29,29,0,0,34)
  ChangeVariable(30,30,0,0,35)
  ChangeVariable(31,31,0,0,35)
  RunCommonEvent(6)
  0()



TROOP 095
 Name "Eater*2"
 PAGE 000
  ChangeVariable(29,29,0,0,36)
  ChangeVariable(30,30,0,0,36)
  RunCommonEvent(6)
  0()



TROOP 096
 Name "Riot"
 PAGE 000
  ChangeVariable(29,29,0,0,37)
  RunCommonEvent(6)
  0()



TROOP 097
 Name "Riot*2"
 PAGE 000
  ChangeVariable(29,29,0,0,37)
  ChangeVariable(30,30,0,0,37)
  RunCommonEvent(6)
  0()



TROOP 098
 Name "Eater, Riot"
 PAGE 000
  ChangeVariable(29,29,0,0,36)
  ChangeVariable(30,30,0,0,37)
  RunCommonEvent(6)
  0()



TROOP 099
 Name "Luxuru*2"
 PAGE 000
  ChangeVariable(29,29,0,0,38)
  ChangeVariable(30,30,0,0,38)
  RunCommonEvent(6)
  0()



TROOP 100
 Name "Eater, Luxuru"
 PAGE 000
  ChangeVariable(29,29,0,0,36)
  ChangeVariable(30,30,0,0,38)
  RunCommonEvent(6)
  0()



TROOP 101
 Name "Dark Elf Swordsman*2"
 PAGE 000
  ChangeVariable(29,29,0,0,39)
  ChangeVariable(30,30,0,0,39)
  RunCommonEvent(6)
  0()



TROOP 102
 Name "Dark Elf Swordsman*3"
 PAGE 000
  ChangeVariable(29,29,0,0,39)
  ChangeVariable(30,30,0,0,39)
  ChangeVariable(31,31,0,0,39)
  RunCommonEvent(6)
  0()



TROOP 103
 Name "Dark Elf Mage*2"
 PAGE 000
  ChangeVariable(29,29,0,0,40)
  ChangeVariable(30,30,0,0,40)
  RunCommonEvent(6)
  0()



TROOP 104
 Name "Dark Elf Swordsman*2, Dark Elf Mage"
 PAGE 000
  ChangeVariable(29,29,0,0,39)
  ChangeVariable(30,30,0,0,39)
  ChangeVariable(31,31,0,0,40)
  RunCommonEvent(6)
  0()



TROOP 105
 Name "Fairy*2"
 PAGE 000
  ChangeVariable(29,29,0,0,41)
  ChangeVariable(30,30,0,0,41)
  RunCommonEvent(6)
  0()



TROOP 106
 Name "Fairy*3"
 PAGE 000
  ChangeVariable(29,29,0,0,41)
  ChangeVariable(30,30,0,0,41)
  ChangeVariable(31,31,0,0,41)
  RunCommonEvent(6)
  0()



TROOP 107
 Name "Jack O Lantern, Fairy"
 PAGE 000
  ChangeVariable(29,29,0,0,32)
  ChangeVariable(30,30,0,0,41)
  ChangeVariable(31,31,0,0,41)
  RunCommonEvent(6)
  0()



TROOP 108
 Name "Mini Crab Girl"
 PAGE 000
  ChangeVariable(29,29,0,0,42)
  RunCommonEvent(6)
  0()



TROOP 109
 Name "Mini Crab Girl*2"
 PAGE 000
  ChangeVariable(29,29,0,0,42)
  ChangeVariable(30,30,0,0,42)
  RunCommonEvent(6)
  0()



TROOP 110
 Name "Catfish Girl"
 PAGE 000
  ChangeVariable(29,29,0,0,43)
  RunCommonEvent(6)
  0()



TROOP 111
 Name "Catfish Girl*2"
 PAGE 000
  ChangeVariable(29,29,0,0,43)
  ChangeVariable(30,30,0,0,43)
  RunCommonEvent(6)
  0()



TROOP 112
 Name "Catfish Girl, Mini Crab Girl"
 PAGE 000
  ChangeVariable(29,29,0,0,43)
  ChangeVariable(30,30,0,0,42)
  RunCommonEvent(6)
  0()



TROOP 113
 Name "Leech Girl, Roper Girl"
 PAGE 000
  ChangeVariable(29,29,0,0,16)
  ChangeVariable(30,30,0,0,33)
  RunCommonEvent(6)
  0()



TROOP 114
 Name "Rafflesia Girl"
 PAGE 000
  ChangeVariable(29,29,0,0,44)
  RunCommonEvent(6)
  0()



TROOP 115
 Name "Rafflesia Girl*2"
 PAGE 000
  ChangeVariable(29,29,0,0,44)
  ChangeVariable(30,30,0,0,44)
  RunCommonEvent(6)
  0()



TROOP 116
 Name "Centaur*2"
 PAGE 000
  ChangeVariable(29,29,0,0,45)
  ChangeVariable(30,30,0,0,45)
  RunCommonEvent(6)
  0()



TROOP 117
 Name "Centaur*3"
 PAGE 000
  ChangeVariable(29,29,0,0,45)
  ChangeVariable(30,30,0,0,45)
  ChangeVariable(31,31,0,0,45)
  RunCommonEvent(6)
  0()



TROOP 118
 Name "Mimic Girl"
 PAGE 000
  ChangeVariable(29,29,0,0,49)
  RunCommonEvent(6)
  0()



TROOP 119
 Name "Two-Tail Silver Kitsune"
 PAGE 000
  ChangeVariable(29,29,0,0,46)
  RunCommonEvent(6)
  0()



TROOP 120
 Name "Two-Tail Silver Kitsune*2"
 PAGE 000
  ChangeVariable(29,29,0,0,46)
  ChangeVariable(30,30,0,0,46)
  RunCommonEvent(6)
  0()



TROOP 121
 Name "Two-Tail Geisha Kitsune"
 PAGE 000
  ChangeVariable(29,29,0,0,47)
  RunCommonEvent(6)
  0()



TROOP 122
 Name "Two-Tail Geisha Kitsune*2"
 PAGE 000
  ChangeVariable(29,29,0,0,47)
  ChangeVariable(30,30,0,0,47)
  RunCommonEvent(6)
  0()



TROOP 123
 Name "Two-Tail Geisha Kitsune, Two-Tail Silver Kitsune"
 PAGE 000
  ChangeVariable(29,29,0,0,47)
  ChangeVariable(30,30,0,0,46)
  RunCommonEvent(6)
  0()



TROOP 124
 Name "Spider Girl"
 PAGE 000
  ChangeVariable(29,29,0,0,48)
  RunCommonEvent(6)
  0()



TROOP 125
 Name "Nanabi"
 PAGE 000
  If(1,1019,0,3,0)
   ShowMessageFace("ruka_fc1",0,0,2,1)
   ShowMessage("\\n<Luka>Damn, what crazy strength...")
   If(0,4,0)
    ShowMessageFace("alice_fc6",0,0,2,2)
    ShowMessage("\\n<Alice>We can't back down though.")
    0()
   EndIf()
   If(0,5,0)
    ShowMessageFace("iriasu_fc4",2,0,2,3)
    ShowMessage("\\n<Ilias>Nevertheless, we can't give up.")
    0()
   EndIf()
   241(bytes(0x04,0x08,0x6f,0x3a,0x0d,0x52,0x50,0x47,0x3a,0x3a,0x42,0x47,0x4d,0x08,0x3a,0x0a,0x40,0x6e,0x61,0x6d,0x65,0x49,0x22,0x10,0x73,0x63,0x65,0x6e,0x65,0x5f,0x73,0x69,0x6e,0x70,0x69,0x06,0x3a,0x06,0x45,0x54,0x3a,0x0c,0x40,0x76,0x6f,0x6c,0x75,0x6d,0x65,0x69,0x69,0x3a,0x0b,0x40,0x70,0x69,0x74,0x63,0x68,0x69,0x69))
   PictureDisplay(5,"80_neris_st01b",0,0,0,0,100,100,0,0)
   PictureMove(5,null,0,0,0,0,100,100,255,0,30,true)
   ShowMessageFace("neris_fc1",0,0,2,4)
   ShowMessage("\\n<???>Geez, just how long is that guy going to take?")
   ShowMessageFace("",0,0,2,5)
   ShowMessage("Suddenly, a mysterious girl interrupts the battle!")
   PictureDisplay(5,"80_neris_st01",0,0,-200,0,100,100,255,0)
   ShowMessageFace("nanabi_fc1",3,0,2,6)
   ShowMessage("\\n<Nanabi>That face... No way!\nAlipheese The 17th!?")
   If(0,4,0)
    ShowMessageFace("alice_fc6",0,0,2,7)
    ShowMessage("\\n<Alice>What!? Alipheese The 17th!?\nWhat are you doing here!?")
    0()
   EndIf()
   If(0,5,0)
    ShowMessageFace("iriasu_fc4",7,0,2,8)
    ShowMessage("\\n<Ilias>You're Alipheese The 17th!?\nWhat are you doing here!?")
    0()
   EndIf()
   ShowMessageFace("neris_fc1",0,0,2,9)
   ShowMessage("\\n<Alipheese The 17th>I should be asking you that. Aren't you supposed to be beating Nanabi?")
   ShowMessageFace("neris_fc1",0,0,2,10)
   ShowMessage("\\n<Alipheese The 17th>No matter how you look at it, you're getting stomped. That's not what happened in the stories I was told, though.")
   ShowMessageFace("nanabi_fc1",3,0,2,11)
   ShowMessage("\\n<Nanabi>What kind of nonsense is that! Alipheese the 17th, I shall take your life as well!")
   241(bytes(0x04,0x08,0x6f,0x3a,0x0d,0x52,0x50,0x47,0x3a,0x3a,0x42,0x47,0x4d,0x08,0x3a,0x0a,0x40,0x6e,0x61,0x6d,0x65,0x49,0x22,0x0f,0x62,0x6f,0x73,0x73,0x5f,0x6d,0x61,0x6f,0x75,0x31,0x06,0x3a,0x06,0x45,0x54,0x3a,0x0c,0x40,0x76,0x6f,0x6c,0x75,0x6d,0x65,0x69,0x69,0x3a,0x0b,0x40,0x70,0x69,0x74,0x63,0x68,0x69,0x69))
   ShowMessageFace("neris_fc1",0,0,2,12)
   ShowMessage("\\n<Alipheese The 17th>It looks like I better straighten things out. ♪")
   PictureClear(5)
   ShowMessageFace("neris_fc1",0,0,2,13)
   ShowMessage("\\n<Alipheese The 17th>Be purified in an explosion of crimson fire...\nVaporizing Rebellion Sword!")
   355("display_skill_name(\"Vaporizing Rebellion Sword\")")
   337(0,126)
   ChangeVariable(15,15,0,2,10000,12000)
   ShowMessageFace("",0,0,2,14)
   ShowMessage("Burning with the flames of purgatory, Alipheese the 17th attacks in a whirlwind of fire!\\D")
   ShowMessage("Nanabi takes 3742 damage!\\D")
   ShowMessage("Nanabi takes 4052 damage!")
   ShowMessageFace("",0,0,2,15)
   ShowMessage("Nanabi takes 3693 damage!\\D")
   ShowMessage("Nanabi takes 4127 damage!\\D")
   ShowMessage("Nanabi takes 3956 damage!")
   355("clear_skill_name")
   PictureDisplay(5,"80_nanabi_st04",0,0,0,0,100,100,255,0)
   ShowMessageFace("nanabi_fc1",3,0,2,16)
   ShowMessage("\\n<Nanabi>Gah, what power!\nAaaaah!!")
   ShowMessageFace("",0,0,2,17)
   ShowMessage("Nanabi collapses to the ground, unable to fight any longer.")
   Wait(60)
   EndBattle()
   0()
  EndIf()
  ChangeVariable(29,29,0,0,50)
  RunCommonEvent(6)
  0()



TROOP 126
 Name "Morrigan"
 PAGE 000
  ChangeVariable(29,29,0,0,51)
  RunCommonEvent(6)
  0()



TROOP 127
 Name "Sea Cucumber Girl"
 PAGE 000
  ChangeVariable(29,29,0,0,52)
  RunCommonEvent(6)
  0()



TROOP 128
 Name "Sea Cucumber Girl*2"
 PAGE 000
  ChangeVariable(29,29,0,0,52)
  ChangeVariable(30,30,0,0,52)
  RunCommonEvent(6)
  0()



TROOP 129
 Name "Shellfish Girl"
 PAGE 000
  ChangeVariable(29,29,0,0,53)
  RunCommonEvent(6)
  0()



TROOP 130
 Name "Shellfish Girl*2"
 PAGE 000
  ChangeVariable(29,29,0,0,53)
  ChangeVariable(30,30,0,0,53)
  RunCommonEvent(6)
  0()



TROOP 131
 Name "Shellfish Girl, Sea Cucumber Girl"
 PAGE 000
  ChangeVariable(29,29,0,0,53)
  ChangeVariable(30,30,0,0,52)
  RunCommonEvent(6)
  0()



TROOP 132
 Name "Crab Girl"
 PAGE 000
  ChangeVariable(29,29,0,0,54)
  RunCommonEvent(6)
  0()



TROOP 133
 Name "Crab Girl*2"
 PAGE 000
  ChangeVariable(29,29,0,0,54)
  ChangeVariable(30,30,0,0,54)
  RunCommonEvent(6)
  0()



TROOP 134
 Name "Shellfish Girl, Crab Girl"
 PAGE 000
  ChangeVariable(29,29,0,0,53)
  ChangeVariable(30,30,0,0,54)
  RunCommonEvent(6)
  0()



TROOP 135
 Name "Sea Cucumber Girl, Crab Girl"
 PAGE 000
  ChangeVariable(29,29,0,0,52)
  ChangeVariable(30,30,0,0,54)
  RunCommonEvent(6)
  0()



TROOP 136
 Name "Slime Bess"
 PAGE 000
  ChangeVariable(29,29,0,0,55)
  RunCommonEvent(6)
  0()



TROOP 137
 Name "Slime Bess*2"
 PAGE 000
  ChangeVariable(29,29,0,0,55)
  ChangeVariable(30,30,0,0,55)
  RunCommonEvent(6)
  0()



TROOP 138
 Name "Watermelon Girl*2"
 PAGE 000
  ChangeVariable(29,29,0,0,56)
  ChangeVariable(30,30,0,0,56)
  RunCommonEvent(6)
  0()



TROOP 139
 Name "Watermelon Girl*3"
 PAGE 000
  ChangeVariable(29,29,0,0,56)
  ChangeVariable(30,30,0,0,56)
  ChangeVariable(31,31,0,0,56)
  RunCommonEvent(6)
  0()



TROOP 140
 Name "Pitcher Plant Girl*2"
 PAGE 000
  ChangeVariable(29,29,0,0,57)
  ChangeVariable(30,30,0,0,57)
  RunCommonEvent(6)
  0()



TROOP 141
 Name "Watermelon Girl, Pitcher Plant Girl*2"
 PAGE 000
  ChangeVariable(29,29,0,0,56)
  ChangeVariable(30,30,0,0,57)
  ChangeVariable(31,31,0,0,57)
  RunCommonEvent(6)
  0()



TROOP 142
 Name "Centaur*2, Watermelon Girl"
 PAGE 000
  ChangeVariable(29,29,0,0,45)
  ChangeVariable(30,30,0,0,45)
  ChangeVariable(31,31,0,0,56)
  RunCommonEvent(6)
  0()



TROOP 143
 Name "Lamia"
 PAGE 000
  ChangeVariable(29,29,0,0,58)
  RunCommonEvent(6)
  0()



TROOP 144
 Name "Seaweed Girl*2"
 PAGE 000
  ChangeVariable(29,29,0,0,59)
  ChangeVariable(30,30,0,0,59)
  RunCommonEvent(6)
  0()



TROOP 145
 Name "Seaweed Girl*3"
 PAGE 000
  ChangeVariable(29,29,0,0,59)
  ChangeVariable(30,30,0,0,59)
  ChangeVariable(31,31,0,0,59)
  RunCommonEvent(6)
  0()



TROOP 146
 Name "Seaweed Girl, Crab Girl"
 PAGE 000
  ChangeVariable(29,29,0,0,59)
  ChangeVariable(30,30,0,0,54)
  RunCommonEvent(6)
  0()



TROOP 147
 Name "Jellyfish Girl"
 PAGE 000
  ChangeVariable(29,29,0,0,60)
  RunCommonEvent(6)
  0()



TROOP 148
 Name "Jellyfish Girl*2"
 PAGE 000
  ChangeVariable(29,29,0,0,60)
  ChangeVariable(30,30,0,0,60)
  RunCommonEvent(6)
  0()



TROOP 149
 Name "Seaweed Girl, Jellyfish Girl"
 PAGE 000
  ChangeVariable(29,29,0,0,59)
  ChangeVariable(30,30,0,0,60)
  RunCommonEvent(6)
  0()



TROOP 150
 Name "Sea Anemone Girl"
 PAGE 000
  ChangeVariable(29,29,0,0,61)
  RunCommonEvent(6)
  0()



TROOP 151
 Name "Anglerfish Girl"
 PAGE 000
  ChangeVariable(29,29,0,0,62)
  RunCommonEvent(6)
  0()



TROOP 152
 Name "Anglerfish Girl*2"
 PAGE 000
  ChangeVariable(29,29,0,0,62)
  ChangeVariable(30,30,0,0,62)
  RunCommonEvent(6)
  0()



TROOP 153
 Name "Seaweed Girl*2, Anglerfish Girl"
 PAGE 000
  ChangeVariable(29,29,0,0,59)
  ChangeVariable(30,30,0,0,59)
  ChangeVariable(31,31,0,0,62)
  RunCommonEvent(6)
  0()



TROOP 154
 Name "Jellyfish Girl, Anglerfish Girl"
 PAGE 000
  ChangeVariable(29,29,0,0,60)
  ChangeVariable(30,30,0,0,62)
  RunCommonEvent(6)
  0()



TROOP 155
 Name "Meia"
 PAGE 000
  ChangeVariable(29,29,0,0,63)
  RunCommonEvent(6)
  0()



TROOP 156
 Name "Page 17*2"
 PAGE 000
  ChangeVariable(29,29,0,0,64)
  ChangeVariable(30,30,0,0,64)
  RunCommonEvent(6)
  0()



TROOP 157
 Name "Page 17*3"
 PAGE 000
  ChangeVariable(29,29,0,0,64)
  ChangeVariable(30,30,0,0,64)
  ChangeVariable(31,31,0,0,64)
  RunCommonEvent(6)
  0()



TROOP 158
 Name "Page 257"
 PAGE 000
  ChangeVariable(29,29,0,0,65)
  RunCommonEvent(6)
  0()



TROOP 159
 Name "Page 257*2"
 PAGE 000
  ChangeVariable(29,29,0,0,65)
  ChangeVariable(30,30,0,0,65)
  RunCommonEvent(6)
  0()



TROOP 160
 Name "Page 17, Page 257"
 PAGE 000
  ChangeVariable(29,29,0,0,64)
  ChangeVariable(30,30,0,0,65)
  RunCommonEvent(6)
  0()



TROOP 161
 Name "Page 17*2, Page 257"
 PAGE 000
  ChangeVariable(29,29,0,0,64)
  ChangeVariable(30,30,0,0,64)
  ChangeVariable(31,31,0,0,65)
  RunCommonEvent(6)
  0()



TROOP 162
 Name "Page 65537"
 PAGE 000
  ChangeVariable(29,29,0,0,66)
  RunCommonEvent(6)
  0()



TROOP 163
 Name "Sister Lamia"
 PAGE 000
  ChangeVariable(29,29,0,0,67)
  RunCommonEvent(6)
  0()



TROOP 164
 Name "Sister Lamia*2"
 PAGE 000
  ChangeVariable(29,29,0,0,67)
  ChangeVariable(30,30,0,0,67)
  RunCommonEvent(6)
  0()



TROOP 165
 Name "Succubus Nun*2"
 PAGE 000
  ChangeVariable(29,29,0,0,68)
  ChangeVariable(30,30,0,0,68)
  RunCommonEvent(6)
  0()



TROOP 166
 Name "Sister Lamia, Succubus Nun"
 PAGE 000
  ChangeVariable(29,29,0,0,67)
  ChangeVariable(30,30,0,0,68)
  RunCommonEvent(6)
  0()



TROOP 167
 Name "Anteater Girl*2"
 PAGE 000
  ChangeVariable(29,29,0,0,69)
  ChangeVariable(30,30,0,0,69)
  RunCommonEvent(6)
  0()



TROOP 168
 Name "Anteater Girl*3"
 PAGE 000
  ChangeVariable(29,29,0,0,69)
  ChangeVariable(30,30,0,0,69)
  ChangeVariable(31,31,0,0,69)
  RunCommonEvent(6)
  0()



TROOP 169
 Name "Sister Lamia, Anteater Girl"
 PAGE 000
  ChangeVariable(29,29,0,0,67)
  ChangeVariable(30,30,0,0,69)
  RunCommonEvent(6)
  0()



TROOP 170
 Name "Succubus Nun, Anteater Girl"
 PAGE 000
  ChangeVariable(29,29,0,0,68)
  ChangeVariable(30,30,0,0,69)
  RunCommonEvent(6)
  0()



TROOP 171
 Name "Grizzly Bear Girl"
 PAGE 000
  ChangeVariable(29,29,0,0,70)
  RunCommonEvent(6)
  0()



TROOP 172
 Name "Grizzly Bear Girl*2"
 PAGE 000
  ChangeVariable(29,29,0,0,70)
  ChangeVariable(30,30,0,0,70)
  RunCommonEvent(6)
  0()



TROOP 173
 Name "Grizzly Bear Girl, Sister Lamia"
 PAGE 000
  ChangeVariable(29,29,0,0,70)
  ChangeVariable(30,30,0,0,67)
  RunCommonEvent(6)
  0()



TROOP 174
 Name "Grizzly Bear Girl, Succubus Nun"
 PAGE 000
  ChangeVariable(29,29,0,0,70)
  ChangeVariable(30,30,0,0,68)
  RunCommonEvent(6)
  0()



TROOP 175
 Name "Grizzly Bear Girl, Anteater Girl*2"
 PAGE 000
  ChangeVariable(29,29,0,0,70)
  ChangeVariable(30,30,0,0,69)
  ChangeVariable(31,31,0,0,69)
  RunCommonEvent(6)
  0()



TROOP 176
 Name "Grizzly Bear Girl, Anteater Girl, Succubus Nun"
 PAGE 000
  ChangeVariable(29,29,0,0,70)
  ChangeVariable(30,30,0,0,69)
  ChangeVariable(31,31,0,0,68)
  RunCommonEvent(6)
  0()



TROOP 177
 Name "Experiment XX-7"
 PAGE 000
  ChangeVariable(29,29,0,0,71)
  RunCommonEvent(6)
  0()



TROOP 178
 Name "Experiment XX-7*2"
 PAGE 000
  ChangeVariable(29,29,0,0,71)
  ChangeVariable(30,30,0,0,71)
  RunCommonEvent(6)
  0()



TROOP 179
 Name "Little Bug*2"
 PAGE 000
  ChangeVariable(29,29,0,0,72)
  ChangeVariable(30,30,0,0,72)
  RunCommonEvent(6)
  0()



TROOP 180
 Name "Little Bug*3"
 PAGE 000
  ChangeVariable(29,29,0,0,72)
  ChangeVariable(30,30,0,0,72)
  ChangeVariable(31,31,0,0,72)
  RunCommonEvent(6)
  0()



TROOP 181
 Name "Experiment XX-7, Little Bug"
 PAGE 000
  ChangeVariable(29,29,0,0,71)
  ChangeVariable(30,30,0,0,72)
  RunCommonEvent(6)
  0()



TROOP 182
 Name "Canceroid"
 PAGE 000
  ChangeVariable(29,29,0,0,73)
  RunCommonEvent(6)
  0()



TROOP 183
 Name "Brunhilde"
 PAGE 000
  ChangeVariable(29,29,0,0,74)
  RunCommonEvent(6)
  0()



TROOP 184
 Name "Ghost Girl"
 PAGE 000
  ChangeVariable(29,29,0,0,75)
  RunCommonEvent(6)
  0()



TROOP 185
 Name "Ghost Girl*2"
 PAGE 000
  ChangeVariable(29,29,0,0,75)
  ChangeVariable(30,30,0,0,75)
  RunCommonEvent(6)
  0()



TROOP 186
 Name "Cursed Doll"
 PAGE 000
  ChangeVariable(29,29,0,0,76)
  RunCommonEvent(6)
  0()



TROOP 187
 Name "Cursed Doll*2"
 PAGE 000
  ChangeVariable(29,29,0,0,76)
  ChangeVariable(30,30,0,0,76)
  RunCommonEvent(6)
  0()



TROOP 188
 Name "Ghost Girl, Cursed Doll"
 PAGE 000
  ChangeVariable(29,29,0,0,75)
  ChangeVariable(30,30,0,0,76)
  RunCommonEvent(6)
  0()



TROOP 189
 Name "Zombie Swordsman"
 PAGE 000
  ChangeVariable(29,29,0,0,77)
  RunCommonEvent(6)
  0()



TROOP 190
 Name "Zombie Swordsman*2"
 PAGE 000
  ChangeVariable(29,29,0,0,77)
  ChangeVariable(30,30,0,0,77)
  RunCommonEvent(6)
  0()



TROOP 191
 Name "Ghost Girl, Zombie Swordsman"
 PAGE 000
  ChangeVariable(29,29,0,0,75)
  ChangeVariable(30,30,0,0,77)
  RunCommonEvent(6)
  0()



TROOP 192
 Name "Ghost Girl, Cursed Doll, Zombie Swordsman"
 PAGE 000
  ChangeVariable(29,29,0,0,75)
  ChangeVariable(30,30,0,0,76)
  ChangeVariable(31,31,0,0,77)
  RunCommonEvent(6)
  0()



TROOP 193
 Name "Zombie Girl*3"
 PAGE 000
  ChangeVariable(29,29,0,0,78)
  ChangeVariable(30,30,0,0,79)
  ChangeVariable(31,31,0,0,80)
  RunCommonEvent(6)
  0()



TROOP 194
 Name "Zombie Girl*3"
 PAGE 000
  ChangeVariable(29,29,0,0,78)
  ChangeVariable(30,30,0,0,79)
  ChangeVariable(31,31,0,0,81)
  RunCommonEvent(6)
  0()



TROOP 195
 Name "Zombie Girl*3"
 PAGE 000
  ChangeVariable(29,29,0,0,78)
  ChangeVariable(30,30,0,0,80)
  ChangeVariable(31,31,0,0,81)
  RunCommonEvent(6)
  0()



TROOP 196
 Name "Chrome, Frederika"
 PAGE 000
  ChangeVariable(29,29,0,0,83)
  ChangeVariable(30,30,0,0,82)
  RunCommonEvent(6)
  0()



TROOP 197
 Name "Elf*2"
 PAGE 000
  ChangeVariable(29,29,0,0,84)
  ChangeVariable(30,30,0,0,84)
  RunCommonEvent(6)
  0()



TROOP 198
 Name "Elf*3"
 PAGE 000
  ChangeVariable(29,29,0,0,84)
  ChangeVariable(30,30,0,0,84)
  ChangeVariable(31,31,0,0,84)
  RunCommonEvent(6)
  0()



TROOP 199
 Name "Brownies"
 PAGE 000
  ChangeVariable(29,29,0,0,85)
  RunCommonEvent(6)
  0()



TROOP 200
 Name "Brownies*2"
 PAGE 000
  ChangeVariable(29,29,0,0,85)
  ChangeVariable(30,30,0,0,85)
  RunCommonEvent(6)
  0()



TROOP 201
 Name "Elf, Brownies"
 PAGE 000
  ChangeVariable(29,29,0,0,84)
  ChangeVariable(30,30,0,0,85)
  RunCommonEvent(6)
  0()



TROOP 202
 Name "Fairy Twins"
 PAGE 000
  ChangeVariable(29,29,0,0,86)
  RunCommonEvent(6)
  0()



TROOP 203
 Name "Fairy Twins*2"
 PAGE 000
  ChangeVariable(29,29,0,0,86)
  ChangeVariable(30,30,0,0,86)
  RunCommonEvent(6)
  0()



TROOP 204
 Name "Brownies, Fairy Twins"
 PAGE 000
  ChangeVariable(29,29,0,0,85)
  ChangeVariable(30,30,0,0,86)
  RunCommonEvent(6)
  0()



TROOP 205
 Name "Elf, Fairy Twins"
 PAGE 000
  ChangeVariable(29,29,0,0,84)
  ChangeVariable(30,30,0,0,86)
  RunCommonEvent(6)
  0()



TROOP 206
 Name "Elf, Brownies, Fairy Twins"
 PAGE 000
  ChangeVariable(29,29,0,0,84)
  ChangeVariable(30,30,0,0,85)
  ChangeVariable(31,31,0,0,86)
  RunCommonEvent(6)
  0()



TROOP 207
 Name "Fairies*3"
 PAGE 000
  ChangeVariable(29,29,0,0,87)
  ChangeVariable(30,30,0,0,88)
  ChangeVariable(31,31,0,0,89)
  RunCommonEvent(6)
  0()



TROOP 208
 Name "Fairies*3"
 PAGE 000
  ChangeVariable(29,29,0,0,87)
  ChangeVariable(30,30,0,0,90)
  ChangeVariable(31,31,0,0,91)
  RunCommonEvent(6)
  0()



TROOP 209
 Name "Fairies*3"
 PAGE 000
  ChangeVariable(29,29,0,0,87)
  ChangeVariable(30,30,0,0,91)
  ChangeVariable(31,31,0,0,92)
  RunCommonEvent(6)
  0()



TROOP 210
 Name "Fairies*3"
 PAGE 000
  ChangeVariable(29,29,0,0,87)
  ChangeVariable(30,30,0,0,88)
  ChangeVariable(31,31,0,0,90)
  RunCommonEvent(6)
  0()



TROOP 211
 Name "Fairies*3"
 PAGE 000
  ChangeVariable(29,29,0,0,87)
  ChangeVariable(30,30,0,0,89)
  ChangeVariable(31,31,0,0,91)
  RunCommonEvent(6)
  0()



TROOP 212
 Name "Sylph"
 PAGE 000
  ChangeVariable(29,29,0,0,93)
  RunCommonEvent(6)
  0()



TROOP 213
 Name "Armored Berserker"
 PAGE 000
  0()



TROOP 214
 Name "Tarantula Girl"
 PAGE 000
  ChangeVariable(29,29,0,0,95)
  RunCommonEvent(6)
  0()



TROOP 215
 Name "Tarantula Girl*2"
 PAGE 000
  ChangeVariable(29,29,0,0,95)
  ChangeVariable(30,30,0,0,95)
  RunCommonEvent(6)
  0()



TROOP 216
 Name "Minotaur Girl"
 PAGE 000
  ChangeVariable(29,29,0,0,96)
  RunCommonEvent(6)
  0()



TROOP 217
 Name "Bandersnatch Girl"
 PAGE 000
  ChangeVariable(29,29,0,0,97)
  RunCommonEvent(6)
  0()



TROOP 218
 Name "Eva"
 PAGE 000
  ChangeVariable(29,29,0,0,98)
  RunCommonEvent(6)
  0()



TROOP 219
 Name "Sables*2"
 PAGE 000
  ChangeVariable(29,29,0,0,99)
  ChangeVariable(30,30,0,0,99)
  RunCommonEvent(6)
  0()



TROOP 220
 Name "Sables*3"
 PAGE 000
  ChangeVariable(29,29,0,0,99)
  ChangeVariable(30,30,0,0,99)
  ChangeVariable(31,31,0,0,99)
  RunCommonEvent(6)
  0()



TROOP 221
 Name "Tarantula Girl, Sables"
 PAGE 000
  ChangeVariable(29,29,0,0,95)
  ChangeVariable(30,30,0,0,99)
  RunCommonEvent(6)
  0()



TROOP 222
 Name "Centipede Girl"
 PAGE 000
  ChangeVariable(29,29,0,0,100)
  RunCommonEvent(6)
  0()



TROOP 223
 Name "Centipede Girl*2"
 PAGE 000
  ChangeVariable(29,29,0,0,100)
  ChangeVariable(30,30,0,0,100)
  RunCommonEvent(6)
  0()



TROOP 224
 Name "Sables, Centipede Girl"
 PAGE 000
  ChangeVariable(29,29,0,0,99)
  ChangeVariable(30,30,0,0,100)
  RunCommonEvent(6)
  0()



TROOP 225
 Name "Scorpion Girl"
 PAGE 000
  ChangeVariable(29,29,0,0,101)
  RunCommonEvent(6)
  0()



TROOP 226
 Name "Scorpion Girl*2"
 PAGE 000
  ChangeVariable(29,29,0,0,101)
  ChangeVariable(30,30,0,0,101)
  RunCommonEvent(6)
  0()



TROOP 227
 Name "Cactus Girl"
 PAGE 000
  ChangeVariable(29,29,0,0,102)
  RunCommonEvent(6)
  0()



TROOP 228
 Name "Cactus Girl*2"
 PAGE 000
  ChangeVariable(29,29,0,0,102)
  ChangeVariable(30,30,0,0,102)
  RunCommonEvent(6)
  0()



TROOP 229
 Name "Scorpion Girl, Cactus Girl"
 PAGE 000
  ChangeVariable(29,29,0,0,101)
  ChangeVariable(30,30,0,0,102)
  RunCommonEvent(6)
  0()



TROOP 230
 Name "Ostrich Girl"
 PAGE 000
  ChangeVariable(29,29,0,0,103)
  RunCommonEvent(6)
  0()



TROOP 231
 Name "Ostrich Girl*2"
 PAGE 000
  ChangeVariable(29,29,0,0,103)
  ChangeVariable(30,30,0,0,103)
  RunCommonEvent(6)
  0()



TROOP 232
 Name "Scorpion Girl, Ostrich Girl"
 PAGE 000
  ChangeVariable(29,29,0,0,101)
  ChangeVariable(30,30,0,0,103)
  RunCommonEvent(6)
  0()



TROOP 233
 Name "Cactus Girl, Ostrich Girl"
 PAGE 000
  ChangeVariable(29,29,0,0,102)
  ChangeVariable(30,30,0,0,103)
  RunCommonEvent(6)
  0()



TROOP 234
 Name "Lamp Genie"
 PAGE 000
  ChangeVariable(29,29,0,0,104)
  RunCommonEvent(6)
  0()



TROOP 235
 Name "Crocodile Girl"
 PAGE 000
  ChangeVariable(29,29,0,0,111)
  RunCommonEvent(6)
  0()



TROOP 236
 Name "Crocodile Girl*2"
 PAGE 000
  ChangeVariable(29,29,0,0,111)
  ChangeVariable(30,30,0,0,111)
  RunCommonEvent(6)
  0()



TROOP 237
 Name "Cactus Girl, Crocodile Girl"
 PAGE 000
  ChangeVariable(29,29,0,0,102)
  ChangeVariable(30,30,0,0,111)
  RunCommonEvent(6)
  0()



TROOP 238
 Name "Ostrich Girl, Crocodile Girl"
 PAGE 000
  ChangeVariable(29,29,0,0,103)
  ChangeVariable(30,30,0,0,111)
  RunCommonEvent(6)
  0()



TROOP 239
 Name "Mummy Girl"
 PAGE 000
  ChangeVariable(29,29,0,0,105)
  RunCommonEvent(6)
  0()



TROOP 240
 Name "Mummy Girl*2"
 PAGE 000
  ChangeVariable(29,29,0,0,105)
  ChangeVariable(30,30,0,0,105)
  RunCommonEvent(6)
  0()



TROOP 241
 Name "Scorpion Girl, Mummy Girl"
 PAGE 000
  ChangeVariable(29,29,0,0,101)
  ChangeVariable(30,30,0,0,105)
  RunCommonEvent(6)
  0()



TROOP 242
 Name "Cobra Girl"
 PAGE 000
  ChangeVariable(29,29,0,0,106)
  RunCommonEvent(6)
  0()



TROOP 243
 Name "Cobra Girl*2"
 PAGE 000
  ChangeVariable(29,29,0,0,106)
  ChangeVariable(30,30,0,0,106)
  RunCommonEvent(6)
  0()



TROOP 244
 Name "Scorpion Girl, Cobra Girl"
 PAGE 000
  ChangeVariable(29,29,0,0,101)
  ChangeVariable(30,30,0,0,106)
  RunCommonEvent(6)
  0()



TROOP 245
 Name "Mummy Girl, Cobra Girl"
 PAGE 000
  ChangeVariable(29,29,0,0,105)
  ChangeVariable(30,30,0,0,106)
  RunCommonEvent(6)
  0()



TROOP 246
 Name "Nefertiti Lamias"
 PAGE 000
  ChangeVariable(29,29,0,0,107)
  RunCommonEvent(6)
  0()



TROOP 247
 Name "Sphinx"
 PAGE 000
  0()



TROOP 248
 Name "Sara"
 PAGE 000
  ChangeVariable(29,29,0,0,109)
  RunCommonEvent(6)
  0()



TROOP 249
 Name "Astaroth"
 PAGE 000
  ChangeVariable(29,29,0,0,110)
  RunCommonEvent(6)
  0()



TROOP 250
 Name "Cobra Girl, Crocodile Girl"
 PAGE 000
  ChangeVariable(29,29,0,0,106)
  ChangeVariable(30,30,0,0,111)
  RunCommonEvent(6)
  0()



TROOP 251
 Name "Saki"
 PAGE 000
  ChangeVariable(29,29,0,0,112)
  RunCommonEvent(6)
  0()



TROOP 252
 Name "Devil Fighter"
 PAGE 000
  ChangeVariable(29,29,0,0,113)
  RunCommonEvent(6)
  0()



TROOP 253
 Name "Devil Fighter*2"
 PAGE 000
  ChangeVariable(29,29,0,0,113)
  ChangeVariable(30,30,0,0,113)
  RunCommonEvent(6)
  0()



TROOP 254
 Name "Devil Fighter*3"
 PAGE 000
  ChangeVariable(29,29,0,0,113)
  ChangeVariable(30,30,0,0,113)
  ChangeVariable(31,31,0,0,113)
  RunCommonEvent(6)
  0()



TROOP 255
 Name "Crocodile Girl, Devil Fighter"
 PAGE 000
  ChangeVariable(29,29,0,0,111)
  ChangeVariable(30,30,0,0,113)
  RunCommonEvent(6)
  0()



TROOP 256
 Name "Large Spider"
 PAGE 000
  ChangeVariable(29,29,0,0,114)
  RunCommonEvent(6)
  0()



TROOP 257
 Name "Large Spider*2"
 PAGE 000
  ChangeVariable(29,29,0,0,114)
  ChangeVariable(30,30,0,0,114)
  RunCommonEvent(6)
  0()



TROOP 258
 Name "Large Spider, Devil Fighter"
 PAGE 000
  ChangeVariable(29,29,0,0,114)
  ChangeVariable(30,30,0,0,113)
  RunCommonEvent(6)
  0()



TROOP 259
 Name "Suck Vore*2"
 PAGE 000
  ChangeVariable(29,29,0,0,115)
  ChangeVariable(30,30,0,0,115)
  RunCommonEvent(6)
  0()



TROOP 260
 Name "Suck Vore*3"
 PAGE 000
  ChangeVariable(29,29,0,0,115)
  ChangeVariable(30,30,0,0,115)
  ChangeVariable(31,31,0,0,115)
  RunCommonEvent(6)
  0()



TROOP 261
 Name "Iron Maiden"
 PAGE 000
  ChangeVariable(29,29,0,0,116)
  RunCommonEvent(6)
  0()



TROOP 262
 Name "Iron Maiden*2"
 PAGE 000
  ChangeVariable(29,29,0,0,116)
  ChangeVariable(30,30,0,0,116)
  RunCommonEvent(6)
  0()



TROOP 263
 Name "Suck Vore, Iron Maiden"
 PAGE 000
  ChangeVariable(29,29,0,0,115)
  ChangeVariable(30,30,0,0,116)
  RunCommonEvent(6)
  0()



TROOP 264
 Name "Worm Villager"
 PAGE 000
  ChangeVariable(29,29,0,0,117)
  RunCommonEvent(6)
  0()



TROOP 265
 Name "Ustrel"
 PAGE 000
  ChangeVariable(29,29,0,0,118)
  RunCommonEvent(6)
  0()



TROOP 266
 Name "Ustrel*2"
 PAGE 000
  ChangeVariable(29,29,0,0,118)
  ChangeVariable(30,30,0,0,118)
  RunCommonEvent(6)
  0()



TROOP 267
 Name "Suck Vore, Ustrel"
 PAGE 000
  ChangeVariable(29,29,0,0,115)
  ChangeVariable(30,30,0,0,118)
  RunCommonEvent(6)
  0()



TROOP 268
 Name "Iron Maiden, Ustrel"
 PAGE 000
  ChangeVariable(29,29,0,0,116)
  ChangeVariable(30,30,0,0,118)
  RunCommonEvent(6)
  0()



TROOP 269
 Name "Honey Pot"
 PAGE 000
  ChangeVariable(29,29,0,0,119)
  RunCommonEvent(6)
  0()



TROOP 270
 Name "Lily"
 PAGE 000
  ChangeVariable(29,29,0,0,120)
  RunCommonEvent(6)
  0()



TROOP 271
 Name "Oni"
 PAGE 000
  ChangeVariable(29,29,0,0,121)
  RunCommonEvent(6)
  0()



TROOP 272
 Name "Oni*2"
 PAGE 000
  ChangeVariable(29,29,0,0,121)
  ChangeVariable(30,30,0,0,121)
  RunCommonEvent(6)
  0()



TROOP 273
 Name "Onahole Girl"
 PAGE 000
  ChangeVariable(29,29,0,0,122)
  RunCommonEvent(6)
  0()



TROOP 274
 Name "Onahole Girl*2"
 PAGE 000
  ChangeVariable(29,29,0,0,122)
  ChangeVariable(30,30,0,0,122)
  RunCommonEvent(6)
  0()



TROOP 275
 Name "Oni, Onahole Girl"
 PAGE 000
  ChangeVariable(29,29,0,0,121)
  ChangeVariable(30,30,0,0,122)
  RunCommonEvent(6)
  0()



TROOP 276
 Name "Naccubus"
 PAGE 000
  ChangeVariable(29,29,0,0,123)
  RunCommonEvent(6)
  0()



TROOP 277
 Name "Naccubus*2"
 PAGE 000
  ChangeVariable(29,29,0,0,123)
  ChangeVariable(30,30,0,0,123)
  RunCommonEvent(6)
  0()



TROOP 278
 Name "Oni, Naccubus"
 PAGE 000
  ChangeVariable(29,29,0,0,121)
  ChangeVariable(30,30,0,0,123)
  RunCommonEvent(6)
  0()



TROOP 279
 Name "Onahole Girl, Naccubus"
 PAGE 000
  ChangeVariable(29,29,0,0,122)
  ChangeVariable(30,30,0,0,123)
  RunCommonEvent(6)
  0()



TROOP 280
 Name "Lucia"
 PAGE 000
  ChangeVariable(29,29,0,0,124)
  RunCommonEvent(6)
  0()



TROOP 281
 Name "Dodomeki"
 PAGE 000
  ChangeVariable(29,29,0,0,125)
  RunCommonEvent(6)
  0()



TROOP 282
 Name "Dodomeki*2"
 PAGE 000
  ChangeVariable(29,29,0,0,125)
  ChangeVariable(30,30,0,0,125)
  RunCommonEvent(6)
  0()



TROOP 283
 Name "Devil Fighter*2, Dodomeki"
 PAGE 000
  ChangeVariable(29,29,0,0,113)
  ChangeVariable(30,30,0,0,113)
  ChangeVariable(31,31,0,0,125)
  RunCommonEvent(6)
  0()



TROOP 284
 Name "Large Spider, Dodomeki"
 PAGE 000
  ChangeVariable(29,29,0,0,114)
  ChangeVariable(30,30,0,0,125)
  RunCommonEvent(6)
  0()



TROOP 285
 Name "Oni*3"
 PAGE 000
  ChangeVariable(29,29,0,0,121)
  ChangeVariable(30,30,0,0,121)
  ChangeVariable(31,31,0,0,121)
  RunCommonEvent(6)
  0()



TROOP 286
 Name "Lizard Thief*2"
 PAGE 000
  ChangeVariable(29,29,0,0,126)
  ChangeVariable(30,30,0,0,126)
  RunCommonEvent(6)
  0()



TROOP 287
 Name "Lizard Thief*2"
 PAGE 000
  ChangeVariable(29,29,0,0,127)
  ChangeVariable(30,30,0,0,127)
  RunCommonEvent(6)
  0()



TROOP 288
 Name "Lizard Thief, Lizard Thief*2"
 PAGE 000
  ChangeVariable(29,29,0,0,126)
  ChangeVariable(30,30,0,0,127)
  RunCommonEvent(6)
  0()



TROOP 289
 Name "Lizard Thief, Lizard Thief*2"
 PAGE 000
  ChangeVariable(29,29,0,0,126)
  ChangeVariable(30,30,0,0,127)
  ChangeVariable(31,31,0,0,127)
  RunCommonEvent(6)
  0()



TROOP 290
 Name "Lizard Thief*2, Lizard Thief"
 PAGE 000
  ChangeVariable(29,29,0,0,126)
  ChangeVariable(30,30,0,0,126)
  ChangeVariable(31,31,0,0,127)
  RunCommonEvent(6)
  0()



TROOP 291
 Name "Lizard Boss"
 PAGE 000
  ChangeVariable(29,29,0,0,128)
  RunCommonEvent(6)
  0()



TROOP 292
 Name "Mirage Girl*2"
 PAGE 000
  ChangeVariable(29,29,0,0,129)
  ChangeVariable(30,30,0,0,129)
  RunCommonEvent(6)
  0()



TROOP 293
 Name "Mirage Girl*3"
 PAGE 000
  ChangeVariable(29,29,0,0,129)
  ChangeVariable(30,30,0,0,129)
  ChangeVariable(31,31,0,0,129)
  RunCommonEvent(6)
  0()



TROOP 294
 Name "Antlion Girl"
 PAGE 000
  ChangeVariable(29,29,0,0,130)
  RunCommonEvent(6)
  0()



TROOP 295
 Name "Sandworm Girl"
 PAGE 000
  ChangeVariable(29,29,0,0,131)
  RunCommonEvent(6)
  0()



TROOP 296
 Name "Desert Scylla"
 PAGE 000
  ChangeVariable(29,29,0,0,132)
  RunCommonEvent(6)
  0()



TROOP 297
 Name "Desert Scylla*2"
 PAGE 000
  ChangeVariable(29,29,0,0,132)
  ChangeVariable(30,30,0,0,132)
  RunCommonEvent(6)
  0()



TROOP 298
 Name "Desert Scylla, Mirage Girl"
 PAGE 000
  ChangeVariable(29,29,0,0,132)
  ChangeVariable(30,30,0,0,129)
  RunCommonEvent(6)
  0()



TROOP 299
 Name "Gnome"
 PAGE 000
  ChangeVariable(29,29,0,0,133)
  RunCommonEvent(6)
  0()



TROOP 300
 Name "Vitae*2"
 PAGE 000
  ChangeVariable(29,29,0,0,134)
  ChangeVariable(30,30,0,0,134)
  RunCommonEvent(6)
  0()



TROOP 301
 Name "Vitae*3"
 PAGE 000
  ChangeVariable(29,29,0,0,134)
  ChangeVariable(30,30,0,0,134)
  ChangeVariable(31,31,0,0,134)
  RunCommonEvent(6)
  0()



TROOP 302
 Name "Vetala*2"
 PAGE 000
  ChangeVariable(29,29,0,0,135)
  ChangeVariable(30,30,0,0,135)
  RunCommonEvent(6)
  0()



TROOP 303
 Name "Vetala*3"
 PAGE 000
  ChangeVariable(29,29,0,0,135)
  ChangeVariable(30,30,0,0,135)
  ChangeVariable(31,31,0,0,135)
  RunCommonEvent(6)
  0()



TROOP 304
 Name "Vitae, Vetala"
 PAGE 000
  ChangeVariable(29,29,0,0,134)
  ChangeVariable(30,30,0,0,135)
  RunCommonEvent(6)
  0()



TROOP 305
 Name "Valto*2"
 PAGE 000
  ChangeVariable(29,29,0,0,136)
  ChangeVariable(30,30,0,0,136)
  RunCommonEvent(6)
  0()



TROOP 306
 Name "Valto*3"
 PAGE 000
  ChangeVariable(29,29,0,0,136)
  ChangeVariable(30,30,0,0,136)
  ChangeVariable(31,31,0,0,136)
  RunCommonEvent(6)
  0()



TROOP 307
 Name "Vitae, Valto"
 PAGE 000
  ChangeVariable(29,29,0,0,134)
  ChangeVariable(30,30,0,0,136)
  RunCommonEvent(6)
  0()



TROOP 308
 Name "Vetala, Valto"
 PAGE 000
  ChangeVariable(29,29,0,0,135)
  ChangeVariable(30,30,0,0,136)
  RunCommonEvent(6)
  0()



TROOP 309
 Name "Shinifa*2"
 PAGE 000
  ChangeVariable(29,29,0,0,137)
  ChangeVariable(30,30,0,0,137)
  RunCommonEvent(6)
  0()



TROOP 310
 Name "Vitae, Shinifa"
 PAGE 000
  ChangeVariable(29,29,0,0,134)
  ChangeVariable(30,30,0,0,137)
  RunCommonEvent(6)
  0()



TROOP 311
 Name "Vetala, Shinifa"
 PAGE 000
  ChangeVariable(29,29,0,0,135)
  ChangeVariable(30,30,0,0,137)
  RunCommonEvent(6)
  0()



TROOP 312
 Name "Valto, Shinifa"
 PAGE 000
  ChangeVariable(29,29,0,0,136)
  ChangeVariable(30,30,0,0,137)
  RunCommonEvent(6)
  0()



TROOP 313
 Name "Vitae, Vetala, Valto"
 PAGE 000
  ChangeVariable(29,29,0,0,134)
  ChangeVariable(30,30,0,0,135)
  ChangeVariable(31,31,0,0,136)
  RunCommonEvent(6)
  0()



TROOP 314
 Name "Vitae, Vetala, Shinifa"
 PAGE 000
  ChangeVariable(29,29,0,0,134)
  ChangeVariable(30,30,0,0,135)
  ChangeVariable(31,31,0,0,137)
  RunCommonEvent(6)
  0()



TROOP 315
 Name "Vetala, Valto, Shinifa"
 PAGE 000
  ChangeVariable(29,29,0,0,135)
  ChangeVariable(30,30,0,0,136)
  ChangeVariable(31,31,0,0,137)
  RunCommonEvent(6)
  0()



TROOP 316
 Name "Shadow Girl*2"
 PAGE 000
  ChangeVariable(29,29,0,0,138)
  ChangeVariable(30,30,0,0,138)
  RunCommonEvent(6)
  0()



TROOP 317
 Name "Shadow Girl*3"
 PAGE 000
  ChangeVariable(29,29,0,0,138)
  ChangeVariable(30,30,0,0,138)
  ChangeVariable(31,31,0,0,138)
  RunCommonEvent(6)
  0()



TROOP 318
 Name "Paintgeist"
 PAGE 000
  ChangeVariable(29,29,0,0,139)
  RunCommonEvent(6)
  0()



TROOP 319
 Name "Paintgeist*2"
 PAGE 000
  ChangeVariable(29,29,0,0,139)
  ChangeVariable(30,30,0,0,139)
  RunCommonEvent(6)
  0()



TROOP 320
 Name "Shadow Girl, Paintgeist"
 PAGE 000
  ChangeVariable(29,29,0,0,138)
  ChangeVariable(30,30,0,0,139)
  RunCommonEvent(6)
  0()



TROOP 321
 Name "Chimera Homunculus"
 PAGE 000
  ChangeVariable(29,29,0,0,140)
  RunCommonEvent(6)
  0()



TROOP 322
 Name "Shadow Girl, Chimera Homunculus"
 PAGE 000
  ChangeVariable(29,29,0,0,138)
  ChangeVariable(30,30,0,0,140)
  RunCommonEvent(6)
  0()



TROOP 323
 Name "Neo Iron Maiden"
 PAGE 000
  ChangeVariable(29,29,0,0,141)
  RunCommonEvent(6)
  0()



TROOP 324
 Name "Neo Iron Maiden*2"
 PAGE 000
  ChangeVariable(29,29,0,0,141)
  ChangeVariable(30,30,0,0,141)
  RunCommonEvent(6)
  0()



TROOP 325
 Name "Shadow Girl, Neo Iron Maiden"
 PAGE 000
  ChangeVariable(29,29,0,0,138)
  ChangeVariable(30,30,0,0,141)
  RunCommonEvent(6)
  0()



TROOP 326
 Name "Junk Doll Girl"
 PAGE 000
  ChangeVariable(29,29,0,0,142)
  RunCommonEvent(6)
  0()



TROOP 327
 Name "Adramelech"
 PAGE 000
  0()



TROOP 328
 PAGE 000
  0()



TROOP 329
 PAGE 000
  0()



TROOP 330
 PAGE 000
  0()



TROOP 331
 Name "Slime Girl*3"
 PAGE 000
  0()



TROOP 332
 Name "Bunny Slime*2"
 PAGE 000
  0()



TROOP 333
 Name "Slime Girl*2, Bunny Slime"
 PAGE 000
  0()



TROOP 334
 Name "Imp*3"
 PAGE 000
  0()



TROOP 335
 Name "Slime Girl, Imp*2"
 PAGE 000
  0()



TROOP 336
 Name "Bee Girl*2"
 PAGE 000
  0()



TROOP 337
 Name "Sparrow Girl*3"
 PAGE 000
  0()



TROOP 338
 Name "Sparrow Girl, Bee Girl"
 PAGE 000
  0()



TROOP 339
 Name "Harpy"
 PAGE 000
  0()



TROOP 340
 Name "Harpy Sisters"
 PAGE 000
  0()



TROOP 341
 Name "Jack O Lantern*3"
 PAGE 000
  0()



TROOP 342
 Name "Dark Elf Swordsman*3"
 PAGE 000
  0()



TROOP 343
 Name "Dark Elf Mage*2"
 PAGE 000
  0()



TROOP 344
 Name "Dark Elf Swordsman, Dark Elf Mage"
 PAGE 000
  0()



TROOP 345
 Name "Fairy*3"
 PAGE 000
  0()



TROOP 346
 Name "Dark Elf Swordsman, Fairy*2"
 PAGE 000
  0()



TROOP 347
 Name "Dark Elf Mage, Fairy*2"
 PAGE 000
  0()



TROOP 348
 Name "Rafflesia Girl*2"
 PAGE 000
  0()



TROOP 349
 Name "Centaur*3"
 PAGE 000
  0()



TROOP 350
 Name "Rafflesia Girl, Centaur"
 PAGE 000
  0()



TROOP 351
 Name "Slime Bess*2"
 PAGE 000
  0()



TROOP 352
 Name "Watermelon Girl*2"
 PAGE 000
  0()



TROOP 353
 Name "Pitcher Plant Girl*3"
 PAGE 000
  0()



TROOP 354
 Name "Watermelon Girl, Pitcher Plant Girl"
 PAGE 000
  0()



TROOP 355
 Name "Elf*3"
 PAGE 000
  0()



TROOP 356
 Name "Brownies*2"
 PAGE 000
  0()



TROOP 357
 Name "Elf, Brownies"
 PAGE 000
  0()



TROOP 358
 Name "Fairy Twins*2"
 PAGE 000
  0()



TROOP 359
 Name "Elf, Fairy Twins"
 PAGE 000
  0()



TROOP 360
 Name "Brownies, Fairy Twins"
 PAGE 000
  0()



TROOP 361
 Name "Fairies, Fairies, Fairies"
 PAGE 000
  0()



TROOP 362
 Name "Fairies, Fairies, Fairies"
 PAGE 000
  0()



TROOP 363
 Name "Imp, Imp, Imp"
 PAGE 000
  0()



TROOP 364
 PAGE 000
  0()



TROOP 365
 PAGE 000
  0()



TROOP 366
 Name "Dog Girl*3"
 PAGE 000
  0()



TROOP 367
 Name "Mandragora*2"
 PAGE 000
  0()



TROOP 368
 Name "Dog Girl*2, Mandragora"
 PAGE 000
  0()



TROOP 369
 Name "Rat Girl*3"
 PAGE 000
  0()



TROOP 370
 Name "Wolf Girl*3"
 PAGE 000
  0()



TROOP 371
 Name "Rat Girl, Wolf Girl"
 PAGE 000
  0()



TROOP 372
 Name "Dog Girl*2, Wolf Girl"
 PAGE 000
  0()



TROOP 373
 Name "Rabbit Girl*3"
 PAGE 000
  0()



TROOP 374
 Name "Sheep Girl*3"
 PAGE 000
  0()



TROOP 375
 Name "Rabbit Girl, Sheep Girl"
 PAGE 000
  0()



TROOP 376
 Name "Dog Girl, Rat Girl, Sheep Girl"
 PAGE 000
  0()



TROOP 377
 Name "Orc Girl*2"
 PAGE 000
  0()



TROOP 378
 Name "Rabbit Girl, Orc Girl"
 PAGE 000
  0()



TROOP 379
 Name "Sheep Girl, Orc Girl"
 PAGE 000
  0()



TROOP 380
 Name "Two-Tail Silver Kitsune*3"
 PAGE 000
  0()



TROOP 381
 Name "Two-Tail Geisha Kitsune*3"
 PAGE 000
  0()



TROOP 382
 Name "Two-Tail Geisha Kitsune, Two-Tail Silver Kitsune"
 PAGE 000
  0()



TROOP 383
 Name "Lamia"
 PAGE 000
  0()



TROOP 384
 Name "Sister Lamia*2"
 PAGE 000
  0()



TROOP 385
 Name "Succubus Nun*3"
 PAGE 000
  0()



TROOP 386
 Name "Sister Lamia, Succubus Nun"
 PAGE 000
  0()



TROOP 387
 Name "Anteater Girl*3"
 PAGE 000
  0()



TROOP 388
 Name "Anteater Girl*2, Sister Lamia"
 PAGE 000
  0()



TROOP 389
 Name "Grizzly Bear Girl*2"
 PAGE 000
  0()



TROOP 390
 Name "Grizzly Bear Girl, Sister Lamia"
 PAGE 000
  0()



TROOP 391
 Name "Grizzly Bear Girl, Succubus Nun"
 PAGE 000
  0()



TROOP 392
 Name "Tarantula Girl*2"
 PAGE 000
  0()



TROOP 393
 Name "Minotaur Girl"
 PAGE 000
  0()



TROOP 394
 Name "Bandersnatch Girl"
 PAGE 000
  0()



TROOP 395
 Name "Sables*3"
 PAGE 000
  0()



TROOP 396
 Name "Tarantula Girl, Sables"
 PAGE 000
  0()



TROOP 397
 Name "Centipede Girl*2"
 PAGE 000
  0()



TROOP 398
 Name "Centipede Girl, Sables"
 PAGE 000
  0()



TROOP 399
 Name "Tarantula Girl, Centipede Girl"
 PAGE 000
  0()



TROOP 400
 Name "Devil Fighter*2"
 PAGE 000
  0()



TROOP 401
 Name "Large Spider*2"
 PAGE 000
  0()



TROOP 402
 Name "Devil Fighter, Large Spider"
 PAGE 000
  0()



TROOP 403
 Name "Dodomeki*3"
 PAGE 000
  0()



TROOP 404
 Name "Dodomeki, Devil Fighter"
 PAGE 000
  0()



TROOP 405
 Name "Dodomeki, Large Spider"
 PAGE 000
  0()



TROOP 406
 PAGE 000
  0()



TROOP 407
 PAGE 000
  0()



TROOP 408
 PAGE 000
  0()



TROOP 409
 Name "Mini Crab Girl*2"
 PAGE 000
  0()



TROOP 410
 Name "Catfish Girl*2"
 PAGE 000
  0()



TROOP 411
 Name "Mini Crab Girl, Catfish Girl"
 PAGE 000
  0()



TROOP 412
 Name "Sea Cucumber Girl*2"
 PAGE 000
  0()



TROOP 413
 Name "Shellfish Girl*2"
 PAGE 000
  0()



TROOP 414
 Name "Sea Cucumber Girl, Shellfish Girl"
 PAGE 000
  0()



TROOP 415
 Name "Crab Girl*2"
 PAGE 000
  0()



TROOP 416
 Name "Sea Cucumber Girl, Crab Girl"
 PAGE 000
  0()



TROOP 417
 Name "Shellfish Girl, Crab Girl"
 PAGE 000
  0()



TROOP 418
 Name "Seaweed Girl*3"
 PAGE 000
  0()



TROOP 419
 Name "Jellyfish Girl*2"
 PAGE 000
  0()



TROOP 420
 Name "Seaweed Girl, Jellyfish Girl"
 PAGE 000
  0()



TROOP 421
 Name "Sea Anemone Girl"
 PAGE 000
  0()



TROOP 422
 Name "Anglerfish Girl*2"
 PAGE 000
  0()



TROOP 423
 Name "Seaweed Girl, Anglerfish Girl"
 PAGE 000
  0()



TROOP 424
 Name "Anglerfish Girl, Jellyfish Girl"
 PAGE 000
  0()



TROOP 425
 PAGE 000
  0()



TROOP 426
 PAGE 000
  0()



TROOP 427
 PAGE 000
  0()



TROOP 428
 Name "Scorpion Girl*2"
 PAGE 000
  0()



TROOP 429
 Name "Cactus Girl*2"
 PAGE 000
  0()



TROOP 430
 Name "Cactus Girl, Scorpion Girl"
 PAGE 000
  0()



TROOP 431
 Name "Ostrich Girl*2"
 PAGE 000
  0()



TROOP 432
 Name "Cactus Girl, Ostrich Girl"
 PAGE 000
  0()



TROOP 433
 Name "Lamp Genie*2"
 PAGE 000
  0()



TROOP 434
 Name "Cactus Girl, Lamp Genie"
 PAGE 000
  0()



TROOP 435
 Name "Ostrich Girl, Lamp Genie"
 PAGE 000
  0()



TROOP 436
 Name "Mummy Girl*2"
 PAGE 000
  0()



TROOP 437
 Name "Cobra Girl*2"
 PAGE 000
  0()



TROOP 438
 Name "Mummy Girl, Cobra Girl"
 PAGE 000
  0()



TROOP 439
 Name "Nefertiti Lamias"
 PAGE 000
  0()



TROOP 440
 Name "Crocodile Girl*2"
 PAGE 000
  0()



TROOP 441
 Name "Mirage Girl*3"
 PAGE 000
  0()



TROOP 442
 Name "Mirage Girl, Crocodile Girl"
 PAGE 000
  0()



TROOP 443
 Name "Antlion Girl"
 PAGE 000
  0()



TROOP 444
 Name "Sandworm Girl"
 PAGE 000
  0()



TROOP 445
 Name "Desert Scylla*2"
 PAGE 000
  0()



TROOP 446
 Name "Mirage Girl, Desert Scylla"
 PAGE 000
  0()



TROOP 447
 PAGE 000
  0()



TROOP 448
 PAGE 000
  0()



TROOP 449
 PAGE 000
  0()



TROOP 450
 Name "Slug Girl*3"
 PAGE 000
  0()



TROOP 451
 Name "Earthworm Girl*2"
 PAGE 000
  0()



TROOP 452
 Name "Slug Girl, Earthworm Girl"
 PAGE 000
  0()



TROOP 453
 Name "Leech Girl*2"
 PAGE 000
  0()



TROOP 454
 Name "Slug Girl, Leech Girl"
 PAGE 000
  0()



TROOP 455
 Name "Earthworm Girl, Leech Girl"
 PAGE 000
  0()



TROOP 456
 Name "High Slug Girl*2"
 PAGE 000
  0()



TROOP 457
 Name "Slug Nun*3"
 PAGE 000
  0()



TROOP 458
 Name "High Slug Girl, Slug Nun"
 PAGE 000
  0()



TROOP 459
 Name "Slug Girl*2, High Slug Girl"
 PAGE 000
  0()



TROOP 460
 Name "Roper Girl*2"
 PAGE 000
  0()



TROOP 461
 Name "Meda Girl*2"
 PAGE 000
  0()



TROOP 462
 Name "Roper Girl, Meda Girl"
 PAGE 000
  0()



TROOP 463
 Name "Candle Girl*3"
 PAGE 000
  0()



TROOP 464
 Name "Roper Girl, Candle Girl*2"
 PAGE 000
  0()



TROOP 465
 Name "Candle Girl*2, Meda Girl"
 PAGE 000
  0()



TROOP 466
 Name "Spider Girl"
 PAGE 000
  0()



TROOP 467
 Name "Page 17*3"
 PAGE 000
  0()



TROOP 468
 Name "Page 257*2"
 PAGE 000
  0()



TROOP 469
 Name "Page 17, Page 257"
 PAGE 000
  0()



TROOP 470
 Name "Experiment XX-7*2"
 PAGE 000
  0()



TROOP 471
 Name "Little Bug*3"
 PAGE 000
  0()



TROOP 472
 Name "Little Bug, Experiment XX-7"
 PAGE 000
  0()



TROOP 473
 Name "Canceroid"
 PAGE 000
  0()



TROOP 474
 Name "Ghost Girl*2"
 PAGE 000
  0()



TROOP 475
 Name "Cursed Doll*3"
 PAGE 000
  0()



TROOP 476
 Name "Ghost Girl, Cursed Doll"
 PAGE 000
  0()



TROOP 477
 Name "Zombie Swordsman*3"
 PAGE 000
  0()



TROOP 478
 Name "Ghost Girl, Cursed Doll, Zombie Swordsman"
 PAGE 000
  0()



TROOP 479
 Name "Zombie Girl*3"
 PAGE 000
  0()



TROOP 480
 Name "Zombie Girl*3"
 PAGE 000
  0()



TROOP 481
 Name "Zombie Girl*3"
 PAGE 000
  0()



TROOP 482
 Name "Suck Vore*3"
 PAGE 000
  0()



TROOP 483
 Name "Iron Maiden*2"
 PAGE 000
  0()



TROOP 484
 Name "Suck Vore, Iron Maiden"
 PAGE 000
  0()



TROOP 485
 Name "Worm Villager"
 PAGE 000
  0()



TROOP 486
 Name "Ustrel*2"
 PAGE 000
  0()



TROOP 487
 Name "Suck Vore, Ustrel"
 PAGE 000
  0()



TROOP 488
 Name "Iron Maiden, Ustrel"
 PAGE 000
  0()



TROOP 489
 Name "Oni*3"
 PAGE 000
  0()



TROOP 490
 Name "Onahole Girl*3"
 PAGE 000
  0()



TROOP 491
 Name "Oni, Onahole Girl"
 PAGE 000
  0()



TROOP 492
 Name "Naccubus*2"
 PAGE 000
  0()



TROOP 493
 Name "Oni, Naccubus"
 PAGE 000
  0()



TROOP 494
 Name "Onahole Girl, Naccubus"
 PAGE 000
  0()



TROOP 495
 Name "Lizard Thief*3"
 PAGE 000
  0()



TROOP 496
 Name "Lizard Thief*3"
 PAGE 000
  0()



TROOP 497
 Name "Lizard Thief, Lizard Thief*2"
 PAGE 000
  0()



TROOP 498
 PAGE 000
  0()



TROOP 499
 PAGE 000
  0()



TROOP 500
 PAGE 000
  0()



TROOP 501
 Name "Sully*2"
 PAGE 000
  0()



TROOP 502
 Name "Jaide*3"
 PAGE 000
  0()



TROOP 503
 Name "Sully, Jaide"
 PAGE 000
  0()



TROOP 504
 Name "Shesta*2"
 PAGE 000
  0()



TROOP 505
 Name "Eater*2"
 PAGE 000
  0()



TROOP 506
 Name "Riot*2"
 PAGE 000
  0()



TROOP 507
 Name "Eater, Riot"
 PAGE 000
  0()



TROOP 508
 Name "Luxuru*2"
 PAGE 000
  0()



TROOP 509
 Name "Eater, Luxuru"
 PAGE 000
  0()



TROOP 510
 Name "Riot, Luxuru"
 PAGE 000
  0()



TROOP 511
 Name "Vitae*3"
 PAGE 000
  0()



TROOP 512
 Name "Vetala*3"
 PAGE 000
  0()



TROOP 513
 Name "Vitae, Vetala"
 PAGE 000
  0()



TROOP 514
 Name "Valto*2"
 PAGE 000
  0()



TROOP 515
 Name "Vitae, Valto"
 PAGE 000
  0()



TROOP 516
 Name "Vetala, Valto"
 PAGE 000
  0()



TROOP 517
 Name "Shinifa*2"
 PAGE 000
  0()



TROOP 518
 Name "Vitae, Shinifa"
 PAGE 000
  0()



TROOP 519
 Name "Vetala, Shinifa"
 PAGE 000
  0()



TROOP 520
 Name "Valto, Shinifa"
 PAGE 000
  0()



TROOP 521
 Name "Shadow Girl*3"
 PAGE 000
  0()



TROOP 522
 Name "Paintgeist*2"
 PAGE 000
  0()



TROOP 523
 Name "Shadow Girl, Paintgeist"
 PAGE 000
  0()



TROOP 524
 Name "Chimera Homunculus*2"
 PAGE 000
  0()



TROOP 525
 Name "Shadow Girl, Chimera Homunculus"
 PAGE 000
  0()



TROOP 526
 Name "Neo Iron Maiden*2"
 PAGE 000
  0()



TROOP 527
 Name "Shadow Girl, Neo Iron Maiden"
 PAGE 000
  0()



TROOP 528
 Name "Junk Doll Girl"
 PAGE 000
  0()



TROOP 529
 PAGE 000
  0()



TROOP 530
 PAGE 000
  0()



TROOP 531
 PAGE 000
  0()



TROOP 532
 Name "Mimic Girl"
 PAGE 000
  0()



TROOP 533
 Name "Honey Pot"
 PAGE 000
  0()



TROOP 534
 PAGE 000
  0()



TROOP 535
 PAGE 000
  0()



TROOP 536
 PAGE 000
  0()



TROOP 537
 Name "Goblin Girl"
 PAGE 000
  0()



TROOP 538
 Name "Tiny Lamia"
 PAGE 000
  0()



TROOP 539
 Name "Vampire Girl"
 PAGE 000
  0()



TROOP 540
 Name "Dragon Pup"
 PAGE 000
  0()



TROOP 541
 Name "Phoenix Girl"
 PAGE 000
  0()



TROOP 542
 Name "Nuruko"
 PAGE 000
  0()



TROOP 543
 Name "Queen Harpy"
 PAGE 000
  0()



TROOP 544
 Name "Slug Stars"
 PAGE 000
  0()



TROOP 545
 Name "Nanabi"
 PAGE 000
  0()



TROOP 546
 Name "Meia"
 PAGE 000
  0()



TROOP 547
 Name "Page 65537"
 PAGE 000
  0()



TROOP 548
 Name "Brunhilde"
 PAGE 000
  0()



TROOP 549
 Name "Chrome, Frederika"
 PAGE 000
  0()



TROOP 550
 Name "Sylph"
 PAGE 000
  0()



TROOP 551
 Name "Eva"
 PAGE 000
  0()



TROOP 552
 Name "Sara"
 PAGE 000
  0()



TROOP 553
 Name "Saki"
 PAGE 000
  0()



TROOP 554
 Name "Lily"
 PAGE 000
  0()



TROOP 555
 Name "Lucia"
 PAGE 000
  0()



TROOP 556
 Name "Lizard Boss"
 PAGE 000
  0()



TROOP 557
 Name "Gnome"
 PAGE 000
  0()



TROOP 558
 PAGE 000
  0()



TROOP 559
 PAGE 000
  0()



TROOP 560
 PAGE 000
  0()



TROOP 561
 Name "Morrigan"
 PAGE 000
  0()



TROOP 562
 Name "スフィンクス"
 PAGE 000
  0()



TROOP 563
 Name "Astaroth"
 PAGE 000
  0()



TROOP 564
 Name "Adramelech"
 PAGE 000
  0()



TROOP 565
 Name "Alipheese The 16th"
 PAGE 000
  0()



TROOP 566
 Name "Reaper"
 PAGE 000
  0()



TROOP 567
 Name "Sonya Mazda"
 PAGE 000
  0()



TROOP 568
 Name "Sonya Mainyu"
 PAGE 000
  0()



TROOP 569
 Name "Micaela"
 PAGE 000
  0()



TROOP 570
 Name "Lucifina"
 PAGE 000
  0()



TROOP 571
 PAGE 000
  0()



TROOP 572
 PAGE 000
  0()



TROOP 573
 PAGE 000
  0()



TROOP 574
 PAGE 000
  0()



TROOP 575
 PAGE 000
  0()



TROOP 576
 PAGE 000
  0()



TROOP 577
 PAGE 000
  0()



TROOP 578
 PAGE 000
  0()



TROOP 579
 PAGE 000
  0()



TROOP 580
 PAGE 000
  0()



TROOP 581
 PAGE 000
  0()



TROOP 582
 PAGE 000
  0()



TROOP 583
 PAGE 000
  0()



TROOP 584
 PAGE 000
  0()



TROOP 585
 PAGE 000
  0()



TROOP 586
 PAGE 000
  0()



TROOP 587
 PAGE 000
  0()



TROOP 588
 PAGE 000
  0()



TROOP 589
 PAGE 000
  0()



TROOP 590
 PAGE 000
  0()



TROOP 591
 PAGE 000
  0()



TROOP 592
 PAGE 000
  0()



TROOP 593
 PAGE 000
  0()



TROOP 594
 PAGE 000
  0()



TROOP 595
 PAGE 000
  0()



TROOP 596
 PAGE 000
  0()



TROOP 597
 PAGE 000
  0()



TROOP 598
 PAGE 000
  0()



TROOP 599
 PAGE 000
  0()



TROOP 600
 PAGE 000
  0()
