

EVENT   1
 PAGE   1
  0()



EVENT   2
 PAGE   1
  0()



EVENT   3
 PAGE   1
  Wait(60)
  222()
  205(2,bytes(0x04,0x08,0x6f,0x3a,0x13,0x52,0x50,0x47,0x3a,0x3a,0x4d,0x6f,0x76,0x65,0x52,0x6f,0x75,0x74,0x65,0x09,0x3a,0x0c,0x40,0x72,0x65,0x70,0x65,0x61,0x74,0x46,0x3a,0x0f,0x40,0x73,0x6b,0x69,0x70,0x70,0x61,0x62,0x6c,0x65,0x46,0x3a,0x0a,0x40,0x77,0x61,0x69,0x74,0x54,0x3a,0x0a,0x40,0x6c,0x69,0x73,0x74,0x5b,0x0a,0x6f,0x3a,0x15,0x52,0x50,0x47,0x3a,0x3a,0x4d,0x6f,0x76,0x65,0x43,0x6f,0x6d,0x6d,0x61,0x6e,0x64,0x07,0x3a,0x0a,0x40,0x63,0x6f,0x64,0x65,0x69,0x09,0x3a,0x10,0x40,0x70,0x61,0x72,0x61,0x6d,0x65,0x74,0x65,0x72,0x73,0x5b,0x00,0x6f,0x3b,0x0a,0x07,0x3b,0x0b,0x69,0x09,0x3b,0x0c,0x5b,0x00,0x6f,0x3b,0x0a,0x07,0x3b,0x0b,0x69,0x09,0x3b,0x0c,0x5b,0x00,0x6f,0x3b,0x0a,0x07,0x3b,0x0b,0x69,0x09,0x3b,0x0c,0x5b,0x00,0x6f,0x3b,0x0a,0x07,0x3b,0x0b,0x69,0x00,0x3b,0x0c,0x5b,0x00))
  ShowMessageFace("meia_fc1",0,0,2,1)
  ShowMessage("\\n<Meia>Queen of the Southern Seas, I come before you with my marriage registration papers.")
  205(1,bytes(0x04,0x08,0x6f,0x3a,0x13,0x52,0x50,0x47,0x3a,0x3a,0x4d,0x6f,0x76,0x65,0x52,0x6f,0x75,0x74,0x65,0x09,0x3a,0x0c,0x40,0x72,0x65,0x70,0x65,0x61,0x74,0x46,0x3a,0x0f,0x40,0x73,0x6b,0x69,0x70,0x70,0x61,0x62,0x6c,0x65,0x46,0x3a,0x0a,0x40,0x77,0x61,0x69,0x74,0x54,0x3a,0x0a,0x40,0x6c,0x69,0x73,0x74,0x5b,0x09,0x6f,0x3a,0x15,0x52,0x50,0x47,0x3a,0x3a,0x4d,0x6f,0x76,0x65,0x43,0x6f,0x6d,0x6d,0x61,0x6e,0x64,0x07,0x3a,0x0a,0x40,0x63,0x6f,0x64,0x65,0x69,0x17,0x3a,0x10,0x40,0x70,0x61,0x72,0x61,0x6d,0x65,0x74,0x65,0x72,0x73,0x5b,0x00,0x6f,0x3b,0x0a,0x07,0x3b,0x0b,0x69,0x14,0x3b,0x0c,0x5b,0x06,0x69,0x14,0x6f,0x3b,0x0a,0x07,0x3b,0x0b,0x69,0x15,0x3b,0x0c,0x5b,0x00,0x6f,0x3b,0x0a,0x07,0x3b,0x0b,0x69,0x00,0x3b,0x0c,0x5b,0x00))
  241(bytes(0x04,0x08,0x6f,0x3a,0x0d,0x52,0x50,0x47,0x3a,0x3a,0x42,0x47,0x4d,0x08,0x3a,0x0a,0x40,0x6e,0x61,0x6d,0x65,0x49,0x22,0x0c,0x62,0x6f,0x73,0x73,0x30,0x2d,0x32,0x06,0x3a,0x06,0x45,0x54,0x3a,0x0c,0x40,0x76,0x6f,0x6c,0x75,0x6d,0x65,0x69,0x69,0x3a,0x0b,0x40,0x70,0x69,0x74,0x63,0x68,0x69,0x69))
  ShowMessageFace("meia_fc1",3,0,2,2)
  ShowMessage("\\n<Meia>Um, who are you?! Where's the Queen?!")
  PictureDisplay(5,"80_meia_st04",0,0,-100,0,100,100,255,0)
  PictureDisplay(6,"80_astaroth_st01",0,0,150,0,100,100,255,0)
  ShowMessageFace("astaroth_fc1",0,0,2,3)
  ShowMessage("\\n<Astaroth>The Queen of the Southern Seas is right here. If you want, I'll even give her to you.")
  250(bytes(0x04,0x08,0x6f,0x3a,0x0c,0x52,0x50,0x47,0x3a,0x3a,0x53,0x45,0x08,0x3a,0x0a,0x40,0x6e,0x61,0x6d,0x65,0x49,0x22,0x0a,0x49,0x74,0x65,0x6d,0x31,0x06,0x3a,0x06,0x45,0x54,0x3a,0x0b,0x40,0x70,0x69,0x74,0x63,0x68,0x69,0x69,0x3a,0x0c,0x40,0x76,0x6f,0x6c,0x75,0x6d,0x65,0x69,0x55))
  ShowMessageFace("",0,0,2,4)
  ShowMessage("Meia has acquired a \\I[4091]Dried Squid!")
  ShowMessageFace("meia_fc1",3,0,2,5)
  ShowMessage("\\n<Meia>T-this... is the Queen?! W-what happened to her?")
  ShowMessageFace("astaroth_fc1",0,0,2,6)
  ShowMessage("\\n<Astaroth>I weakened her as much as I could, but she isn't dead. Now, who should be the next Queen... I guess you'll do.")
  250(bytes(0x04,0x08,0x6f,0x3a,0x0c,0x52,0x50,0x47,0x3a,0x3a,0x53,0x45,0x08,0x3a,0x0a,0x40,0x6e,0x61,0x6d,0x65,0x49,0x22,0x0e,0x6d,0x6f,0x6e,0x5f,0x66,0x6c,0x61,0x73,0x68,0x06,0x3a,0x06,0x45,0x54,0x3a,0x0b,0x40,0x70,0x69,0x74,0x63,0x68,0x69,0x69,0x3a,0x0c,0x40,0x76,0x6f,0x6c,0x75,0x6d,0x65,0x69,0x69))
  ShowMessageFace("",0,0,2,7)
  ShowMessage("Astaroth's eyes shine strangely!")
  ShowMessageFace("meia_fc1",3,0,2,8)
  ShowMessage("\\n<Meia>I'm... the Queen of the Southern Seas...")
  ShowMessageFace("astaroth_fc1",0,0,2,9)
  ShowMessage("\\n<Astaroth>That's right, you're the Queen. Do as you please. Do as your desires compel you to...")
  ShowMessageFace("meia_fc1",3,0,2,10)
  ShowMessage("\\n<Meia>I'm the Queen... Do as I... Desire...")
  241(bytes(0x04,0x08,0x6f,0x3a,0x0d,0x52,0x50,0x47,0x3a,0x3a,0x42,0x47,0x4d,0x08,0x3a,0x0a,0x40,0x6e,0x61,0x6d,0x65,0x49,0x22,0x0a,0x6b,0x69,0x6b,0x69,0x32,0x06,0x3a,0x06,0x45,0x54,0x3a,0x0c,0x40,0x76,0x6f,0x6c,0x75,0x6d,0x65,0x69,0x69,0x3a,0x0b,0x40,0x70,0x69,0x74,0x63,0x68,0x69,0x69))
  PictureDisplay(5,"80_meia_st02",0,0,-100,0,100,100,255,0)
  ShowMessageFace("meia_fc1",1,0,2,11)
  ShowMessage("\\n<Meia>Yes, I'm the Queen of the Southern Seas. Everything will happen as I desire.")
  ShowMessageFace("astaroth_fc1",1,0,2,12)
  ShowMessage("\\n<Astaroth>This is my sister's style, not mine, but I have to admit it's got its merits.")
  ShowMessageFace("astaroth_fc1",1,0,2,13)
  ShowMessage("\\n<Astaroth>After all, I'm technically not interfering directly. The inhabitants of this world are mucking things up on their own.")
  ShowMessageFace("astaroth_fc1",0,0,2,14)
  ShowMessage("\\n<Astaroth>This way, we aren't committing Cross-world Contact of the Third Kind. So feel free to go nuts doing whatever it is you want.")
  PictureClear(5)
  PictureClear(6)
  Wait(15)
  250(bytes(0x04,0x08,0x6f,0x3a,0x0c,0x52,0x50,0x47,0x3a,0x3a,0x53,0x45,0x08,0x3a,0x0a,0x40,0x6e,0x61,0x6d,0x65,0x49,0x22,0x0d,0x6d,0x6f,0x6e,0x5f,0x77,0x61,0x72,0x70,0x06,0x3a,0x06,0x45,0x54,0x3a,0x0b,0x40,0x70,0x69,0x74,0x63,0x68,0x69,0x69,0x3a,0x0c,0x40,0x76,0x6f,0x6c,0x75,0x6d,0x65,0x69,0x69))
  205(1,bytes(0x04,0x08,0x6f,0x3a,0x13,0x52,0x50,0x47,0x3a,0x3a,0x4d,0x6f,0x76,0x65,0x52,0x6f,0x75,0x74,0x65,0x09,0x3a,0x0c,0x40,0x72,0x65,0x70,0x65,0x61,0x74,0x46,0x3a,0x0f,0x40,0x73,0x6b,0x69,0x70,0x70,0x61,0x62,0x6c,0x65,0x46,0x3a,0x0a,0x40,0x77,0x61,0x69,0x74,0x54,0x3a,0x0a,0x40,0x6c,0x69,0x73,0x74,0x5b,0x07,0x6f,0x3a,0x15,0x52,0x50,0x47,0x3a,0x3a,0x4d,0x6f,0x76,0x65,0x43,0x6f,0x6d,0x6d,0x61,0x6e,0x64,0x07,0x3a,0x0a,0x40,0x63,0x6f,0x64,0x65,0x69,0x2c,0x3a,0x10,0x40,0x70,0x61,0x72,0x61,0x6d,0x65,0x74,0x65,0x72,0x73,0x5b,0x00,0x6f,0x3b,0x0a,0x07,0x3b,0x0b,0x69,0x00,0x3b,0x0c,0x5b,0x00))
  Wait(30)
  205(2,bytes(0x04,0x08,0x6f,0x3a,0x13,0x52,0x50,0x47,0x3a,0x3a,0x4d,0x6f,0x76,0x65,0x52,0x6f,0x75,0x74,0x65,0x09,0x3a,0x0c,0x40,0x72,0x65,0x70,0x65,0x61,0x74,0x46,0x3a,0x0f,0x40,0x73,0x6b,0x69,0x70,0x70,0x61,0x62,0x6c,0x65,0x46,0x3a,0x0a,0x40,0x77,0x61,0x69,0x74,0x54,0x3a,0x0a,0x40,0x6c,0x69,0x73,0x74,0x5b,0x0d,0x6f,0x3a,0x15,0x52,0x50,0x47,0x3a,0x3a,0x4d,0x6f,0x76,0x65,0x43,0x6f,0x6d,0x6d,0x61,0x6e,0x64,0x07,0x3a,0x0a,0x40,0x63,0x6f,0x64,0x65,0x69,0x2a,0x3a,0x10,0x40,0x70,0x61,0x72,0x61,0x6d,0x65,0x74,0x65,0x72,0x73,0x5b,0x00,0x6f,0x3b,0x0a,0x07,0x3b,0x0b,0x69,0x09,0x3b,0x0c,0x5b,0x00,0x6f,0x3b,0x0a,0x07,0x3b,0x0b,0x69,0x09,0x3b,0x0c,0x5b,0x00,0x6f,0x3b,0x0a,0x07,0x3b,0x0b,0x69,0x09,0x3b,0x0c,0x5b,0x00,0x6f,0x3b,0x0a,0x07,0x3b,0x0b,0x69,0x09,0x3b,0x0c,0x5b,0x00,0x6f,0x3b,0x0a,0x07,0x3b,0x0b,0x69,0x09,0x3b,0x0c,0x5b,0x00,0x6f,0x3b,0x0a,0x07,0x3b,0x0b,0x69,0x15,0x3b,0x0c,0x5b,0x00,0x6f,0x3b,0x0a,0x07,0x3b,0x0b,0x69,0x00,0x3b,0x0c,0x5b,0x00))
  ShowMessageFace("meia_fc1",1,0,2,15)
  ShowMessage("\\n<Meia>I'm the Queen. Everything will happen as I desire.")
  221()
  211(1)
  281(1)
  TeleportPlayer(0,145,13,55,8,0)
  Wait(60)
  222()
  PictureDisplay(5,"80_meia_st04",0,0,0,0,100,100,0,0)
  PictureMove(5,null,0,0,0,0,100,100,255,0,30,true)
  ShowMessageFace("meia_fc1",3,0,2,16)
  ShowMessage("\\n<Meia>After that, I did as my desires dictated... Ahhh, what have I done?!")
  If(0,4,0)
   ShowMessageFace("alice_fc5",0,0,2,17)
   ShowMessage("\\n<Alice>So you were brainwashed into thinking you were the Queen... Also, it appears that your sense of morality was suppressed.")
   0()
  EndIf()
  If(0,5,0)
   ShowMessageFace("iriasu_fc4",2,0,2,18)
   ShowMessage("\\n<Ilias>It appears you were brainwashed into believing that you were the Queen of Southern Seas. As a result, your true, ugly nature as a monster surfaced.")
   0()
  EndIf()
  ShowMessageFace("ruka_fc1",0,0,2,19)
  ShowMessage("\\n<Luka>It sounds like you lost your ability to reason entirely. You're as much of a victim as anyone else in all this.")
  If(4,66,0)
   ShowMessageFace("vgirl_fc1",0,0,2,20)
   ShowMessage("\\n<Vanilla>Which means that the true culprit is somewhere else!")
   0()
  EndIf()
  ShowMessageFace("meia_fc1",3,0,2,21)
  ShowMessage("\\n<Meia>No. After what I've done, I can't just forgive myself... Let's free everyone immediately and return to the surface.")
  If(0,4,0)
   ShowMessageFace("alice_fc5",3,0,2,22)
   ShowMessage("\\n<Alice>So, those succubi sisters were here too. What are they plotting...")
   0()
  EndIf()
  If(0,5,0)
   ShowMessageFace("iriasu_fc4",2,0,2,23)
   ShowMessage("\\n<Ilias>The Lilith sisters were involved in this case as well. I wonder what on earth they're plotting...")
   0()
  EndIf()
  If(4,79,0)
   ShowMessageFace("nuruko_fc1",0,0,2,24)
   ShowMessage("\\n<Nuruko>...Kyu.")
   ShowMessageFace("nuruko_fc1",2,0,2,25)
   ShowMessage("\\n<Nuruko>...ZZZ")
   0()
  EndIf()
  ShowMessageFace("",0,0,2,26)
  ShowMessage("In any case, Meia regained her sanity. The captive mermaids and fishermen were released and returned to the surface.")
  PictureClear(5)
  221()
  211(1)
  TeleportPlayer(0,131,21,14,8,0)
  ChangeSwitch(100,100,1)
  Wait(60)
  222()
  ShowMessageFace("ruka_fc1",0,0,2,27)
  ShowMessage("\\n<Luka>Now, let's go back to Port Natalia and report what happened. We should talk with Meia again, too.")
  If(0,4,0)
   ShowMessageFace("alice_fc5",1,0,2,28)
   ShowMessage("\\n<Alice>Agreed. We need to pick up the mermaids' thank-you gifts. It'd be great if it was something tasty, but I'm flexible.")
   0()
  EndIf()
  If(0,5,0)
   ShowMessageFace("iriasu_fc4",1,0,2,29)
   ShowMessage("\\n<Ilias>Yes, let's go and receive the mermaids' thank-you offerings. My heart is already dancing...♪")
   0()
  EndIf()
  If(4,53,0)
   ShowMessageFace("slime_fc1",0,0,2,30)
   ShowMessage("\\n<Lime>Maybe we'll get some fiiish. ♪")
   0()
  EndIf()
  ChangeVariable(1016,1016,0,0,2)
  0()