=begin
=基盤システム/エンチャント名




==更新履歴
  Date     Version Author Comment

=end

#==============================================================================
# ■ RPG::BaseItem
#==============================================================================
class RPG::BaseItem
  #--------------------------------------------------------------------------
  # ● エンチャント名配列の取得
  #--------------------------------------------------------------------------  
  def enchant_names
    names = []
    
    method_table = {
      FEATURE_ELEMENT_RATE      => :element_rate_name,
      FEATURE_DEBUFF_RATE       => :debuff_rate_name,
      FEATURE_STATE_RATE        => :state_rate_name,
      FEATURE_STATE_RESIST      => :state_resist_name,
      FEATURE_PARAM             => :param_name,
      FEATURE_XPARAM            => :xparam_name,
      FEATURE_SPARAM            => :sparam_name,
      FEATURE_ATK_ELEMENT       => :atk_element_name,
      FEATURE_ATK_STATE         => :atk_state_name,
      FEATURE_ATK_SPEED         => :atk_speed_name,
      FEATURE_ATK_TIMES         => :atk_times_name,
      FEATURE_STYPE_ADD         => :stype_add_name,
      FEATURE_STYPE_SEAL        => :stype_seal_name,
      FEATURE_EQUIP_WTYPE       => :equip_wtype_name,
      FEATURE_EQUIP_ATYPE       => :equip_atype_name,
      FEATURE_EQUIP_FIX         => :equip_fix_name,
      FEATURE_EQUIP_SEAL        => :equip_seal_name,
      FEATURE_SLOT_TYPE         => :slot_type_name,
      FEATURE_ACTION_PLUS       => :action_plus_name,
      FEATURE_SPECIAL_FLAG      => :special_flag_name,
      FEATURE_COLLAPSE_TYPE     => :collaplse_type_name,
      FEATURE_PARTY_ABILITY     => :party_ability_name,
      FEATURE_XPARAM_EX         => :xparam_ex_name,
      FEATURE_PARTY_EX_ABILITY  => :party_ex_ability_name,
      FEATURE_BATTLER_ABILITY   => :battler_ability_name,
      FEATURE_MULTI_BOOSTER     => :multi_booster_name,
      FEATURE_DUMMY_ENCHANT     => :dummy_enchant_name,      
      FEATURE_TERRAIN_BOOSTER   => :terrain_booster_name,
    }
    
    self.features.sort_by{|ft| [ft.code, ft.data_id]}.each{|ft|
      method_name = method_table[ft.code]
      names.push(send(method_name, ft)) if method_name
    }
    return names.flatten.compact
  end
  #--------------------------------------------------------------------------
  # ● 属性有効度名の取得
  #--------------------------------------------------------------------------  
  def element_rate_name(ft)
    name = $data_system.elements[ft.data_id]
    rate = (ft.value * 100.0).to_i
    return ft.value == 0.0 ? "Nullify #{name}" : "#{100 < rate ?  "#{name} ""Weak" : "Resist"" #{name}"} #{rate}%"
  end
  #--------------------------------------------------------------------------
  # ● 弱体有効度名の取得
  #--------------------------------------------------------------------------  
  def debuff_rate_name(ft)
    name = Vocab::param(ft.data_id)
    rate = (ft.value * 100.0).to_i
    return ft.value == 0.0 ? "Nullify Lower #{name}" : "#{100 < rate ?  "Lower #{name} ""Weak" : "Resist Lower"" #{name}"} #{rate}%"
  end
  #--------------------------------------------------------------------------
  # ● ステート有効度名の取得
  #--------------------------------------------------------------------------  
  def state_rate_name(ft)
    name = $data_states[ft.data_id].name
    rate = (ft.value * 100.0).to_i
    return ft.value == 0.0 ? "Nullify #{name}" : "#{100 < rate ?  "#{name} ""Weak" : "Resist"" #{name}"} #{rate}%"
  end
  #--------------------------------------------------------------------------
  # ● ステート無効化名の取得
  #--------------------------------------------------------------------------  
  def state_resist_name(ft)
    name = $data_states[ft.data_id].name
    return "Nullify #{name}"
  end
  #--------------------------------------------------------------------------
  # ● 通常能力補正名の取得
  #--------------------------------------------------------------------------  
  def param_name(ft)
    name = Vocab::param(ft.data_id)
    rate = (ft.value * 100.0).to_i
    return "#{name} #{100 < rate ? "+" : ""}#{rate-100}%"
  end  
  #--------------------------------------------------------------------------
  # ● 追加能力補正名の取得
  #--------------------------------------------------------------------------  
  def xparam_name(ft)
    xparam_name_table = [
      "Hit Rate", 
      "Evasion Rate",
      "Crit Rate",
      "Crit Evasion Rate",
      "Magic Evasion Rate",
      "Magic Reflect",
      "Counter Rate",
      "HP Regen",
      "MP Regen",
      "SP Regen",
    ]
    name = xparam_name_table[ft.data_id]
    rate = (ft.value * 100.0).to_i
    return "#{name} #{rate}%"
  end  
  #--------------------------------------------------------------------------
  # ● 特殊能力補正名の取得
  #--------------------------------------------------------------------------  
  def sparam_name(ft)
    sparam_name_table = [
      "Target Rate", 
      "Guard Effect",
      "Metabolism",
      "Healing Item Power",
      "MP Cost",
      "SP Charge",
      "Physical Damage",
      "Magical Damage",
      "Environmental Damage",
      "Exp Value",
    ]
    name = sparam_name_table[ft.data_id]
    rate = (ft.value * 100.0).to_i
    return "#{name} #{rate}%"
  end
  #--------------------------------------------------------------------------
  # ● 攻撃時属性名の取得
  #--------------------------------------------------------------------------  
  def atk_element_name(ft)
    return nil unless (2..37).include?(ft.data_id)
    name = $data_system.elements[ft.data_id]
    suffix = ((2..10).to_a + [35, 36]).include?(ft.data_id) ? " Strike" : " Killer"
    return "#{name}#{suffix}"
  end
  #--------------------------------------------------------------------------
  # ● 攻撃時ステート名の取得
  #--------------------------------------------------------------------------  
  def atk_state_name(ft)
    name = $data_states[ft.data_id].name
    rate = (ft.value * 100.0).to_i
    return "#{name} Strike #{rate}%"
  end
  #--------------------------------------------------------------------------
  # ● 攻撃速度補正名の取得
  #--------------------------------------------------------------------------  
  def atk_speed_name(ft)
    return "Attack Priority"
  end
  #--------------------------------------------------------------------------
  # ● 攻撃追加回数名の取得
  #--------------------------------------------------------------------------  
  def atk_times_name(ft)
    return "#{ft.value.to_i + 1} Normal Attacks"
  end
  #--------------------------------------------------------------------------
  # ● スキルタイプ追加名の取得
  #--------------------------------------------------------------------------  
  def stype_add_name(ft)
    name = $data_system.skill_types[ft.data_id]
    return "Skill Use:#{name}"
  end
  #--------------------------------------------------------------------------
  # ● スキルタイプ封印名の取得
  #--------------------------------------------------------------------------  
  def stype_seal_name(ft)
    name = $data_system.skill_types[ft.data_id]
    return "Seal:#{name}"
  end
  #--------------------------------------------------------------------------
  # ● 武器装備可能名の取得
  #--------------------------------------------------------------------------  
  def equip_wtype_name(ft)
    name = $data_system.weapon_types[ft.data_id]
    return "Equip:#{name}"
  end
  #--------------------------------------------------------------------------
  # ● 防具装備可能名の取得
  #--------------------------------------------------------------------------  
  def equip_atype_name(ft)
    name = $data_system.armor_types[ft.data_id]
    return "Equip:#{name}"
  end
  #--------------------------------------------------------------------------
  # ● 装備固定名の取得
  #--------------------------------------------------------------------------  
  def equip_fix_name(ft)
    name = Vocab.etype(ft.data_id)
    return "Equip Only:#{name}"
  end
  #--------------------------------------------------------------------------
  # ● 装備封印名の取得
  #--------------------------------------------------------------------------  
  def equip_seal_name(ft)
    name = Vocab.etype(ft.data_id)
    return "Block Equip:#{name}"
  end
  #--------------------------------------------------------------------------
  # ● スロットタイプ名の取得
  #--------------------------------------------------------------------------  
  def slot_type_name(ft)
    return ft.data_id == 1 ? "Dual-Wield" : "Empty Slot"
  end
  #--------------------------------------------------------------------------
  # ● 行動回数追加名の取得
  #--------------------------------------------------------------------------  
  def action_plus_name(ft)
    return "#{ft.value.floor + 1} Actions"
  end
  #--------------------------------------------------------------------------
  # ● 特殊フラグ名の取得
  #--------------------------------------------------------------------------  
  def special_flag_name(ft)
    flag_name_table = {
      AUTO_BATTLE => "Auto Battle",
      GUARD       => "Damage Reduction",
      SUBSTITUTE  => "Victim",
      PRESERVE_TP => "SP Carry Over",
    }
    return flag_name_table[ft.data_id]
  end
  #--------------------------------------------------------------------------
  # ● 消滅エフェクト名の取得
  #--------------------------------------------------------------------------  
  def collaplse_type_name(ft)
    type_name = "Immortal"
    type_name = "Boss" if ft.data_id == 1
    type_name = "Instant" if ft.data_id == 2
    return "Death Effect：#{type_name}"
  end
  #--------------------------------------------------------------------------
  # ● パーティアビリティ名の取得
  #--------------------------------------------------------------------------  
  def party_ability_name(ft)
    ability_name_table = {
      ENCOUNTER_HALF    => "Encounter Half",
      ENCOUNTER_NONE    => "Encounter None",
      CANCEL_SURPRISE   => "Nullify Ambush",
      RAISE_PREEMPTIVE  => "Preemptive Strike Up",
      GOLD_DOUBLE       => "Double Gold Drop",
      DROP_ITEM_DOUBLE  => "Double Item Drop",      
    }
    return ability_name_table[ft.data_id]
  end
  #--------------------------------------------------------------------------
  # ● 拡張追加能力補正名の取得
  #--------------------------------------------------------------------------  
  def xparam_ex_name(ft)
    xparam_name_table = [
      "Hit Rate", 
      "Evasion Rate",
      "Crit Rate",
      "Crit Evasion Rate",
      "Magic Evasion Rate",
      "Magic Reflection",
      "Counter Rate",
      "HP Regen",
      "MP Regen",
      "SP Regen",
    ]
    name = xparam_name_table[ft.data_id]
    rate = (ft.value * 100.0).to_i
    return "#{name} +#{rate}%"
  end
  #--------------------------------------------------------------------------
  # ● 拡張パーティアビリティ名の取得
  #--------------------------------------------------------------------------  
  def party_ex_ability_name(ft)
    method_table = {
      GET_GOLD_RATE   => :get_gold_rate_name,
      GET_ITEM_RATE   => :get_item_rate_name,
      ENCOUNTER_RATE  => :encounter_rate_name,
      COLLECT_RATE    => :collect_rate_name,
      SLOT_CHANCE     => :slot_chance_name,
      UNLOCK_LEVEL    => :unlock_level_name,
    }
    method_name = method_table[ft.data_id]
    return method_name ? send(method_name, ft) : "UNKNOWN:PartyExAbility"
  end
  #--------------------------------------------------------------------------
  # ● 獲得金額倍率名の取得
  #--------------------------------------------------------------------------  
  def get_gold_rate_name(ft)
    rate = (ft.value * 100.0).to_i
    return "#{rate}% Gold Drop"
  end  
  #--------------------------------------------------------------------------
  # ● 獲得アイテム倍率名の取得
  #--------------------------------------------------------------------------  
  def get_item_rate_name(ft)
    rate = (ft.value * 100.0).to_i
    return "#{rate}% Item Drop"
  end  
  #--------------------------------------------------------------------------
  # ● エンカウント倍率名の取得
  #--------------------------------------------------------------------------  
  def encounter_rate_name(ft)
    rate = (ft.value * 100.0).to_i
    return "Encounter None" if ft.value == 0.0
    return "Encounter Rate #{rate}%"
  end  
  #--------------------------------------------------------------------------
  # ● 仲間加入倍率名の取得
  #--------------------------------------------------------------------------  
  def collect_rate_name(ft)
    rate = (ft.value * 100.0).to_i - 100
    return "Recruit Rate #{0 < rate ? "+" : "-"}#{rate}%"
  end
  #--------------------------------------------------------------------------
  # ● スロットチャンス名の取得
  #--------------------------------------------------------------------------  
  def slot_chance_name(ft)
    return "Slots Luck Up"
  end
  #--------------------------------------------------------------------------
  # ● 解錠レベル名の取得
  #--------------------------------------------------------------------------  
  def unlock_level_name(ft)
    return "Unlock #{ft.value}"
  end
  #--------------------------------------------------------------------------
  # ● バトラーアビリティ名の取得
  #--------------------------------------------------------------------------  
  def battler_ability_name(ft)    
    method_table = {
      STEAL_SUCCESS           => :steal_success_name,
      AUTO_STAND              => :auto_stand_name,
      HEEL_REVERSE            => :heel_reverse_name,
      AUTO_STATE              => :auto_state_names,
      TRIGGER_STATE           => :trigger_state_name,
      METAL_BODY              => :metal_body_name,
      DEFENSE_WALL            => :defense_wall_name,
      INVALIDATE_WALL         => :invalidate_wall_name,
      DAMAGE_MP_CONVERT       => :damage_mp_convert_name,
      DAMAGE_GOLD_CONVERT     => :damage_gold_convert_name,
      DAMAGE_MP_DRAIN         => :damage_mp_drain_name,
      DAMAGE_GOLD_DRAIN       => :damage_gold_drain_name,
      DEAD_SKILL              => :dead_skill_name,
      BATTLE_START_SKILL      => :battle_start_skill_name,
      TURN_START_SKILL        => :turn_start_skill_name,
      TURN_END_SKILL          => :turn_end_skill_name,
      CHANGE_ACTION           => :change_action_names,
      STYPE_COST_RATE         => :stype_cost_rate_name,
      SKILL_COST_RATE         => :skill_cost_rate_name,
      TP_COST_RATE            => :tp_cost_rate_name,
      HP_COST_RATE            => :hp_cost_rate_name,
      GOLD_COST_RATE          => :gold_cost_rate_name,
      INCREASE_TP             => :increase_tp_name,
      START_TP_RATE           => :start_tp_rate_name,
      BATTLE_END_HEEL_HP      => :battle_end_heel_hp_name,
      BATTLE_END_HEEL_MP      => :battle_end_heel_mp_name,
      Battler::NORMAL_ATTACK  => :normal_attack_name,
      COUNTER_SKILL           => :counter_skill_names,
      FINAL_INVOKE            => :final_invoke_names,
      CERTAIN_COUNTER         => :certain_counter_name,
      MAGICAL_COUNTER         => :magical_counter_name,
      PHYSICAL_COUNTER_EX     => :physical_counter_ex_name,
      MAGICAL_COUNTER_EX      => :magical_counter_ex_name,
      CERTAIN_COUNTER_EX      => :certain_counter_ex_name,
      CONSIDERATE             => :considerate_name,
      GET_EXP_RATE            => :get_exp_rate_name,
      GET_CLASSEXP_RATE       => :get_classexp_rate_name,
      INVOKE_REPEATS_TYPE     => :invoke_repeats_type_names,
      INVOKE_REPEATS_SKILL    => :invoke_repeats_skill_names,
      OWN_CRUSH_RESIST        => :own_crush_resist_name,
      ELEMENT_DRAIN           => :element_drain_names,
      IGNORE_OVER_DRIVE       => :ignore_over_drive_name,
      INSTANT_DEAD_REVERSE    => :instant_dead_reverse_name,
      CHANGE_SKILL            => :change_skill_name,
      
    }
    method_name = method_table[ft.data_id]
    return method_name ? send(method_name, ft) : "UNKNOWN:BattlerAbility"    
  end
  #--------------------------------------------------------------------------
  # ● 盗み成功率名の取得
  #--------------------------------------------------------------------------    
  def steal_success_name(ft)
    rate = (ft.value * 100.0).to_i - 100
    return "Steal Rate #{0 < rate ? "+" : "-"}#{rate}%"
  end
  #--------------------------------------------------------------------------
  # ● 踏みとどまり名の取得
  #--------------------------------------------------------------------------    
  def auto_stand_name(ft)
    return "Endure"
  end  
  #--------------------------------------------------------------------------
  # ● 回復反転名の取得
  #--------------------------------------------------------------------------    
  def heel_reverse_name(ft)
    return "Healing Inversion"
  end  
  #--------------------------------------------------------------------------
  # ● オートステート名配列の取得
  #--------------------------------------------------------------------------    
  def auto_state_names(ft)
    names = ft.value.collect{|state_id| $data_states[state_id].name}
    return names.collect{|name| "Battle Start:Auto #{name}"}
  end  
  #--------------------------------------------------------------------------
  # ● トリガーステート名の取得
  #--------------------------------------------------------------------------    
  def trigger_state_name(ft)
    name = $data_states[ft.value[:state_id]].name
    return "Critical State:Auto #{name}"
  end
  #--------------------------------------------------------------------------
  # ● メタルボディ名の取得
  #--------------------------------------------------------------------------    
  def metal_body_name(ft)
    return "Metal Body"
  end
  #--------------------------------------------------------------------------
  # ● 防御壁展開名の取得
  #--------------------------------------------------------------------------    
  def defense_wall_name(ft)
    return "Defense Wall"
  end
  #--------------------------------------------------------------------------
  # ● 無効化障壁名の取得
  #--------------------------------------------------------------------------    
  def invalidate_wall_name(ft)
    return "Nullification Barrier <= #{ft.value}"
  end
  #--------------------------------------------------------------------------
  # ● ダメージMP変換名の取得
  #--------------------------------------------------------------------------    
  def damage_mp_convert_name(ft)
    return "Mana Barrier"
  end
  #--------------------------------------------------------------------------
  # ● ダメージゴールド変換名の取得
  #--------------------------------------------------------------------------    
  def damage_gold_convert_name(ft)
    return "Gold Barrier"
  end
  #--------------------------------------------------------------------------
  # ● ダメージMP吸収名の取得
  #--------------------------------------------------------------------------    
  def damage_mp_drain_name(ft)
    return "Damage Regens MP"
  end
  #--------------------------------------------------------------------------
  # ● ダメージゴールド回収名の取得
  #--------------------------------------------------------------------------    
  def damage_gold_drain_name(ft)
    return "Damage Regens Gold"
  end
  #--------------------------------------------------------------------------
  # ● 死亡時スキル名の取得
  #--------------------------------------------------------------------------    
  def dead_skill_name(ft)
    name = $data_skills[ft.value].name
    return "Death Skill Use:#{name}"
  end
  #--------------------------------------------------------------------------
  # ● 戦闘開始時スキル名の取得
  #--------------------------------------------------------------------------    
  def battle_start_skill_name(ft)
    name   = $data_skills[ft.value[:id]].name
    prefix = ft.value[:per] == 1.0 ? "" : ft.value[:per].to_s + "%"
    return "Battle Start:#{prefix}Auto #{name}"
  end
  #--------------------------------------------------------------------------
  # ● ターン開始時スキル名の取得
  #--------------------------------------------------------------------------    
  def turn_start_skill_name(ft)
    name = $data_skills[ft.value[:id]].name
    prefix = ft.value[:per] == 1.0 ? "" : ft.value[:per].to_s + "%"
    return "Turn Start:#{prefix}Auto #{name}"
  end
  #--------------------------------------------------------------------------
  # ● ターン終了時スキル名の取得
  #--------------------------------------------------------------------------    
  def turn_end_skill_name(ft)
    name = $data_skills[ft.value[:id]].name
    prefix = ft.value[:per] == 1.0 ? "" : ft.value[:per].to_s + "%"
    return "Turn End:#{prefix}Auto #{name}"
  end
  #--------------------------------------------------------------------------
  # ● 行動変化名配列の取得
  #--------------------------------------------------------------------------    
  def change_action_names(ft)
    return nil
  end
  #--------------------------------------------------------------------------
  # ● スキルタイプ消費率名を取得
  #--------------------------------------------------------------------------
  def stype_cost_rate_name(ft)
    name = $data_system.skill_types[ft.value[:id]]
    type = ft.value[:type].to_s
    type = "SP" if type == "TP"
    rate = (ft.value[:rate] * 100.0).to_i
    return "#{name} #{type} Cost #{rate}%"    
  end
  #--------------------------------------------------------------------------
  # ● スキル消費率名を取得
  #--------------------------------------------------------------------------
  def skill_cost_rate_name(ft)
    name = $data_skills[ft.value[:id]].name
    type = ft.value[:type].to_s
    type = "SP" if type == "TP"
    rate = (ft.value[:rate] * 100.0).to_i
    return "#{name} #{type} Cost #{rate}%"    
  end
  #--------------------------------------------------------------------------
  # ● TP消費率名を取得
  #--------------------------------------------------------------------------
  def tp_cost_rate_name(ft)
    rate = (ft.value * 100.0).to_i
    return "SP Cost #{rate}%"
  end
  #--------------------------------------------------------------------------
  # ● HP消費率名を取得
  #--------------------------------------------------------------------------
  def hp_cost_rate_name(ft)
    rate = (ft.value * 100.0).to_i
    return "HP Cost #{rate}%"
  end
  #--------------------------------------------------------------------------
  # ● ゴールド消費率名を取得
  #--------------------------------------------------------------------------
  def gold_cost_rate_name(ft)
    rate = (ft.value * 100.0).to_i
    return "Gold Cost #{rate}%"
  end
  #--------------------------------------------------------------------------
  # ● 最大TP増減名を取得
  #--------------------------------------------------------------------------
  def increase_tp_name(ft)
    return "Max SP #{ft.value[:plus] ? "+" : "-"}#{ft.value[:num]}%"
  end
  #--------------------------------------------------------------------------
  # ● 開始時TP名を取得
  #--------------------------------------------------------------------------
  def start_tp_rate_name(ft)
    rate = (ft.value * 100.0).to_i
    return "Battle Start:#{rate}% SP"
  end
  #--------------------------------------------------------------------------
  # ● 戦闘後HP回復名を取得
  #--------------------------------------------------------------------------
  def battle_end_heel_hp_name(ft)
    rate = (ft.value * 100.0).to_i
    return "Post Battle:#{rate}% HP Regen"
  end
  #--------------------------------------------------------------------------
  # ● 戦闘後MP回復名を取得
  #--------------------------------------------------------------------------
  def battle_end_heel_mp_name(ft)
    rate = (ft.value * 100.0).to_i
    return "Post Battle:#{rate}% MP Regen"
  end
  #--------------------------------------------------------------------------
  # ● 通常攻撃名を取得
  #--------------------------------------------------------------------------
  def normal_attack_name(ft)
    return $data_skills[ft.value].name
  end
  #--------------------------------------------------------------------------
  # ● 反撃スキル名配列を取得
  #--------------------------------------------------------------------------
  def counter_skill_names(ft)
    return ft.value.collect{|skill_id| $data_skills[skill_id].name}
  end
  #--------------------------------------------------------------------------
  # ● 最終反撃名配列を取得
  #--------------------------------------------------------------------------
  def final_invoke_names(ft)
    names = ft.value.collect{|skill_id| $data_skills[skill_id].name}
    return names.collect{|name| "Death Skill Use:「#{name}」"}
  end
  #--------------------------------------------------------------------------
  # ● 必中反撃名を取得
  #--------------------------------------------------------------------------
  def certain_counter_name(ft)
    return "Physical Counter"
  end
  #--------------------------------------------------------------------------
  # ● 魔法反撃名を取得
  #--------------------------------------------------------------------------
  def magical_counter_name(ft)
    return "Magic Counter"
  end
  #--------------------------------------------------------------------------
  # ● 拡張物理反撃名を取得
  #--------------------------------------------------------------------------
  def physical_counter_ex_name(ft)
    return nil
  end
  #--------------------------------------------------------------------------
  # ● 拡張魔法反撃名を取得
  #--------------------------------------------------------------------------
  def magical_counter_ex_name(ft)
    return nil
  end
  #--------------------------------------------------------------------------
  # ● 拡張必中反撃名を取得
  #--------------------------------------------------------------------------
  def certain_counter_ex_name(ft)
    return nil
  end
  #--------------------------------------------------------------------------
  # ● 仲間想い名を取得
  #--------------------------------------------------------------------------
  def considerate_name(ft)
    return "Vengeance Attack Boost"
  end  
  #--------------------------------------------------------------------------
  # ● 獲得経験値倍率名を取得
  #--------------------------------------------------------------------------
  def get_exp_rate_name(ft)
    rate = (ft.value * 100.0).to_i
    return "#{rate}% XP"
  end
  #--------------------------------------------------------------------------
  # ● 獲得職業経験値倍率名を取得
  #--------------------------------------------------------------------------
  def get_classexp_rate_name(ft)
    rate = (ft.value * 100.0).to_i
    return "#{rate}% Job XP"
  end
  #--------------------------------------------------------------------------
  # ● 連続発動タイプ名配列を取得
  #--------------------------------------------------------------------------
  def invoke_repeats_type_names(ft)
    names = []
    ft.value.each{|key, val|
      names.push("#{$data_system.skill_types[key]} Multi Strike")
    }
    return names
  end
  #--------------------------------------------------------------------------
  # ● 連続発動スキル名配列を取得
  #--------------------------------------------------------------------------
  def invoke_repeats_skill_names(ft)
    names = []
    ft.value.each{|key, val|
      names.push("#{$data_skills[key].name} Multi Strike")
    }
    return names
  end
  #--------------------------------------------------------------------------
  # ● 自爆耐性名を取得
  #--------------------------------------------------------------------------
  def own_crush_resist_name(ft)
    return "Self Destruct Immune"
  end
  #--------------------------------------------------------------------------
  # ● 属性吸収名配列を取得
  #--------------------------------------------------------------------------
  def element_drain_names(ft)
    names = ft.value.collect{|element_id| $data_system.elements[element_id]}
    return names.collect{|name| "#{name} Absorb"}
  end
  #--------------------------------------------------------------------------
  # ● 時間停止無視を取得
  #--------------------------------------------------------------------------
  def ignore_over_drive_name(ft)
    return "Nullify Time Stop"
  end
  #--------------------------------------------------------------------------
  # ● 即死反転を取得
  #--------------------------------------------------------------------------
  def instant_dead_reverse_name(ft)
    return nil
  end
  #--------------------------------------------------------------------------
  # ● スキル変化を取得
  #--------------------------------------------------------------------------
  def change_skill_name(ft)
    return nil
  end
  #--------------------------------------------------------------------------
  # ● マルチブースター名の取得
  #--------------------------------------------------------------------------  
  def multi_booster_name(ft)    
    method_table = {
      ELEMENT                => :booster_element_name,
      WEAPON_PHYSICAL        => :booster_weapon_physical_name,
      WEAPON_MAGICAL         => :booster_weapon_magical_name,
      WEAPON_CERTAIN         => :booster_weapon_certain_name,
      Booster::NORMAL_ATTACK => :booster_normal_attack_name,
      STATE_RATIO_TYPE       => :booster_state_ratio_type_name,
      STATE_FIX_TYPE         => :booster_state_fix_type_name,
      SKILL_TYPE             => :booster_skill_type_name,
      STATE_RATIO_SKILL      => :booster_state_ratio_skill_name,
      SKILL                  => :booster_skill_name,
      WTYPE_SKILL            => :booster_wtype_skill_name,
      COUNTER                => :booster_counter_name,
      FALL_HP                => :booster_fall_hp_name,
      OVER_SOUL              => :over_soul_name,
    }
    method_name = method_table[ft.data_id]
    return method_name ? send(method_name, ft) : "UNKNOWN:MultiBooster"            
  end
  #--------------------------------------------------------------------------
  # ● 属性ブースター倍率名を取得
  #--------------------------------------------------------------------------
  def booster_element_name(ft)
    names = []
    ft.value.each{|key, val|
      rate = (val * 100.0).to_i
      names.push("#{$data_system.elements[key]} Booster #{rate}%")
    }
    return names
  end
  #--------------------------------------------------------------------------
  # ● 武器強化物理倍率名を取得
  #--------------------------------------------------------------------------
  def booster_weapon_physical_name(ft)
    names = []
    ft.value.each{|key, val|
      rate = (val * 100.0).to_i
      names.push("#{$data_system.weapon_types[key]} Physical Booster #{rate}%")
    }
    return names
  end
  #--------------------------------------------------------------------------
  # ● 武器強化魔法倍率名を取得
  #--------------------------------------------------------------------------
  def booster_weapon_magical_name(ft)
    names = []
    ft.value.each{|key, val|
      rate = (val * 100.0).to_i
      names.push("#{$data_system.weapon_types[key]} Magic Booster #{rate}%")
    }
    return names
  end
  #--------------------------------------------------------------------------
  # ● 武器強化必中倍率名を取得
  #--------------------------------------------------------------------------
  def booster_certain_magical_name(ft)
    names = []
    ft.value.each{|key, val|
      rate = (val * 100.0).to_i
      names.push("#{$data_system.weapon_types[key]} Booster #{rate}%")
    }
    return names
  end
  #--------------------------------------------------------------------------
  # ● 通常攻撃強化倍率名を取得
  #--------------------------------------------------------------------------
  def booster_normal_attack_name(ft)
    return nil
  end
  #--------------------------------------------------------------------------
  # ● ステート割合強化タイプ倍率名を取得
  #--------------------------------------------------------------------------
  def booster_state_ratio_type_name(ft)
    names = []
    ft.value.each{|key, val|
      rate = (val * 100.0).to_i
      names.push("#{$data_system.skill_types[key]} Status Inflict Booster #{rate}%")
    }
    return names
  end
  #--------------------------------------------------------------------------
  # ● ステート固定強化タイプ倍率名を取得
  #--------------------------------------------------------------------------
  def booster_state_fix_type_name(ft)
    names = []
    ft.value.each{|key, val|
      rate = (val * 100.0).to_i
      names.push("#{$data_system.skill_types[key]} Status Inflict Booster #{rate}%")
    }
    return names
  end
  #--------------------------------------------------------------------------
  # ● スキルタイプ強化倍率名を取得
  #--------------------------------------------------------------------------
  def booster_skill_type_name(ft)
    names = []
    ft.value.each{|key, val|
      rate = (val * 100.0).to_i
      names.push("#{$data_system.skill_types[key]} Booster #{rate}%")
    }
    return names
  end
  #--------------------------------------------------------------------------
  # ● ステート割合強化スキル倍率名を取得
  #--------------------------------------------------------------------------
  def booster_state_ratio_skill_name(ft)
    names = []
    ft.value.each{|key, val|
      rate = (val * 100.0).to_i
      names.push("#{$data_skills[key].name} Status Inflict Booster #{rate}%")
    }
    return names
  end
  #--------------------------------------------------------------------------
  # ● スキル強化倍率名を取得
  #--------------------------------------------------------------------------
  def booster_skill_name(ft)
    names = []
    ft.value.each{|key, val|
      rate = (val * 100.0).to_i
      names.push("#{$data_skills[key].name} Booster #{rate}%")
    }
    return names
  end
  #--------------------------------------------------------------------------
  # ● 武器スキル強化倍率名を取得
  #--------------------------------------------------------------------------
  def booster_wtype_skill_name(ft)
    names = []
    ft.value.each{|key, val|
      rate = (val * 100.0).to_i
      name = key[0] == 0 ? "No Weapon" : "#{$data_system.weapon_types[key[0]]} Equipped:"
      name += "#{$data_system.skill_types[key[1]]} Booster #{rate}%"
      names.push(name)
    }
    return names
  end
  #--------------------------------------------------------------------------
  # ● カウンター強化倍率名を取得
  #--------------------------------------------------------------------------
  def booster_counter_name(ft)
    return "Counter Damage Up"
  end
  #--------------------------------------------------------------------------
  # ● HP減少時強化倍率名を取得
  #--------------------------------------------------------------------------
  def booster_fall_hp_name(ft)
    return "Critical Stats Up"
  end
  #--------------------------------------------------------------------------
  # ● オーバーソウル名を取得
  #--------------------------------------------------------------------------
  def over_soul_name(ft)
    return "Vengeance Stats Up"
  end
  #--------------------------------------------------------------------------
  # ● 解説追加名を取得
  #--------------------------------------------------------------------------  
  def dummy_enchant_name(ft)
    return ft.value
  end
  #--------------------------------------------------------------------------
  # ● 地形強化名を取得
  #--------------------------------------------------------------------------  
  def terrain_booster_name(ft)
    return "#{0.2 < ft.value ? "Super " : ""} #{ft.data_id.to_s}Strength"
  end
end

#==============================================================================
# ■ RPG::EquipItem
#==============================================================================
class RPG::EquipItem < RPG::BaseItem
  #--------------------------------------------------------------------------
  # ● パラメータ名配列の取得
  #--------------------------------------------------------------------------  
  def param_names
    names = []
    self.params.each_with_index{|param, i|
      next if param == 0
      names.push(sprintf("%s:%d", Vocab::param(i), param))
    }  
    return names
  end
end











